Run/testbench.vcd
$date
	Sun May 25 22:21:00 2025
$end
$version
	Icarus Verilog
$end
$timescale
	1s
$end
$scope module caminho_tb $end
$var wire 32 ! reg9 [31:0] $end
$var wire 32 " reg8 [31:0] $end
$var wire 32 # reg7 [31:0] $end
$var wire 32 $ reg6 [31:0] $end
$var wire 32 % reg5 [31:0] $end
$var wire 32 & reg4 [31:0] $end
$var wire 32 ' reg31 [31:0] $end
$var wire 32 ( reg30 [31:0] $end
$var wire 32 ) reg3 [31:0] $end
$var wire 32 * reg29 [31:0] $end
$var wire 32 + reg28 [31:0] $end
$var wire 32 , reg27 [31:0] $end
$var wire 32 - reg26 [31:0] $end
$var wire 32 . reg25 [31:0] $end
$var wire 32 / reg24 [31:0] $end
$var wire 32 0 reg23 [31:0] $end
$var wire 32 1 reg22 [31:0] $end
$var wire 32 2 reg21 [31:0] $end
$var wire 32 3 reg20 [31:0] $end
$var wire 32 4 reg2 [31:0] $end
$var wire 32 5 reg19 [31:0] $end
$var wire 32 6 reg18 [31:0] $end
$var wire 32 7 reg17 [31:0] $end
$var wire 32 8 reg16 [31:0] $end
$var wire 32 9 reg15 [31:0] $end
$var wire 32 : reg14 [31:0] $end
$var wire 32 ; reg13 [31:0] $end
$var wire 32 < reg12 [31:0] $end
$var wire 32 = reg11 [31:0] $end
$var wire 32 > reg10 [31:0] $end
$var wire 32 ? reg1 [31:0] $end
$var wire 32 @ reg0 [31:0] $end
$var wire 32 A mem9 [31:0] $end
$var wire 32 B mem8 [31:0] $end
$var wire 32 C mem7 [31:0] $end
$var wire 32 D mem6 [31:0] $end
$var wire 32 E mem5 [31:0] $end
$var wire 32 F mem4 [31:0] $end
$var wire 32 G mem31 [31:0] $end
$var wire 32 H mem30 [31:0] $end
$var wire 32 I mem3 [31:0] $end
$var wire 32 J mem29 [31:0] $end
$var wire 32 K mem28 [31:0] $end
$var wire 32 L mem27 [31:0] $end
$var wire 32 M mem26 [31:0] $end
$var wire 32 N mem25 [31:0] $end
$var wire 32 O mem24 [31:0] $end
$var wire 32 P mem23 [31:0] $end
$var wire 32 Q mem22 [31:0] $end
$var wire 32 R mem21 [31:0] $end
$var wire 32 S mem20 [31:0] $end
$var wire 32 T mem2 [31:0] $end
$var wire 32 U mem19 [31:0] $end
$var wire 32 V mem18 [31:0] $end
$var wire 32 W mem17 [31:0] $end
$var wire 32 X mem16 [31:0] $end
$var wire 32 Y mem15 [31:0] $end
$var wire 32 Z mem14 [31:0] $end
$var wire 32 [ mem13 [31:0] $end
$var wire 32 \ mem12 [31:0] $end
$var wire 32 ] mem11 [31:0] $end
$var wire 32 ^ mem10 [31:0] $end
$var wire 32 _ mem1 [31:0] $end
$var wire 32 ` mem0 [31:0] $end
$var reg 1 a clk_tb $end
$var reg 1 b rst_tb $end
$scope module main $end
$var wire 1 a clk $end
$var wire 1 c memread $end
$var wire 1 d memwrite $end
$var wire 1 b rst $end
$var wire 32 e writedataR [31:0] $end
$var wire 3 f tipo [2:0] $end
$var wire 5 g rs2 [4:0] $end
$var wire 5 h rs1 [4:0] $end
$var wire 1 i regwrite $end
$var wire 1 j regiwrite $end
$var wire 32 k reg9 [31:0] $end
$var wire 32 l reg8 [31:0] $end
$var wire 32 m reg7 [31:0] $end
$var wire 32 n reg6 [31:0] $end
$var wire 32 o reg5 [31:0] $end
$var wire 32 p reg4 [31:0] $end
$var wire 32 q reg31 [31:0] $end
$var wire 32 r reg30 [31:0] $end
$var wire 32 s reg3 [31:0] $end
$var wire 32 t reg29 [31:0] $end
$var wire 32 u reg28 [31:0] $end
$var wire 32 v reg27 [31:0] $end
$var wire 32 w reg26 [31:0] $end
$var wire 32 x reg25 [31:0] $end
$var wire 32 y reg24 [31:0] $end
$var wire 32 z reg23 [31:0] $end
$var wire 32 { reg22 [31:0] $end
$var wire 32 | reg21 [31:0] $end
$var wire 32 } reg20 [31:0] $end
$var wire 32 ~ reg2 [31:0] $end
$var wire 32 !" reg19 [31:0] $end
$var wire 32 "" reg18 [31:0] $end
$var wire 32 #" reg17 [31:0] $end
$var wire 32 $" reg16 [31:0] $end
$var wire 32 %" reg15 [31:0] $end
$var wire 32 &" reg14 [31:0] $end
$var wire 32 '" reg13 [31:0] $end
$var wire 32 (" reg12 [31:0] $end
$var wire 32 )" reg11 [31:0] $end
$var wire 32 *" reg10 [31:0] $end
$var wire 32 +" reg1 [31:0] $end
$var wire 32 ," reg0 [31:0] $end
$var wire 32 -" reddataM [31:0] $end
$var wire 5 ." rd [4:0] $end
$var wire 1 /" pcsrc $end
$var wire 7 0" opcode [6:0] $end
$var wire 1 1" negativo $end
$var wire 1 2" memtoreg $end
$var wire 32 3" mem9 [31:0] $end
$var wire 32 4" mem8 [31:0] $end
$var wire 32 5" mem7 [31:0] $end
$var wire 32 6" mem6 [31:0] $end
$var wire 32 7" mem5 [31:0] $end
$var wire 32 8" mem4 [31:0] $end
$var wire 32 9" mem31 [31:0] $end
$var wire 32 :" mem30 [31:0] $end
$var wire 32 ;" mem3 [31:0] $end
$var wire 32 <" mem29 [31:0] $end
$var wire 32 =" mem28 [31:0] $end
$var wire 32 >" mem27 [31:0] $end
$var wire 32 ?" mem26 [31:0] $end
$var wire 32 @" mem25 [31:0] $end
$var wire 32 A" mem24 [31:0] $end
$var wire 32 B" mem23 [31:0] $end
$var wire 32 C" mem22 [31:0] $end
$var wire 32 D" mem21 [31:0] $end
$var wire 32 E" mem20 [31:0] $end
$var wire 32 F" mem2 [31:0] $end
$var wire 32 G" mem19 [31:0] $end
$var wire 32 H" mem18 [31:0] $end
$var wire 32 I" mem17 [31:0] $end
$var wire 32 J" mem16 [31:0] $end
$var wire 32 K" mem15 [31:0] $end
$var wire 32 L" mem14 [31:0] $end
$var wire 32 M" mem13 [31:0] $end
$var wire 32 N" mem12 [31:0] $end
$var wire 32 O" mem11 [31:0] $end
$var wire 32 P" mem10 [31:0] $end
$var wire 32 Q" mem1 [31:0] $end
$var wire 32 R" mem0 [31:0] $end
$var wire 32 S" ler_dados2 [31:0] $end
$var wire 32 T" ler_dados1 [31:0] $end
$var wire 1 U" is_sb $end
$var wire 1 V" is_lb $end
$var wire 32 W" instrucao [31:0] $end
$var wire 12 X" imediato [11:0] $end
$var wire 7 Y" funct7 [6:0] $end
$var wire 3 Z" funct3 [2:0] $end
$var wire 1 [" branch $end
$var wire 1 \" alusrc $end
$var wire 32 ]" aluresult2 [31:0] $end
$var wire 1 ^" aluresult1 $end
$var wire 4 _" alucontrol [3:0] $end
$var wire 32 `" PC [31:0] $end
$var parameter 4 a" AUX1 $end
$var parameter 4 b" AUX2 $end
$var parameter 4 c" AUX3 $end
$var parameter 4 d" AUX4 $end
$var parameter 4 e" EX $end
$var parameter 4 f" FIM $end
$var parameter 4 g" ID $end
$var parameter 4 h" IF $end
$var parameter 4 i" MEM $end
$var parameter 4 j" SUMPC $end
$var parameter 4 k" WB $end
$var reg 4 l" estado [3:0] $end
$scope module Alu $end
$var wire 1 a clk $end
$var wire 4 m" estado [3:0] $end
$var wire 1 /" pcsrc $end
$var wire 1 1" negativo $end
$var wire 32 n" ler_dados2 [31:0] $end
$var wire 32 o" ler_dados1 [31:0] $end
$var wire 12 p" imediato [11:0] $end
$var wire 1 [" branch $end
$var wire 1 \" alusrc $end
$var wire 4 q" alucontrol [3:0] $end
$var reg 1 ^" aluresult1 $end
$var reg 32 r" aluresult2 [31:0] $end
$upscope $end
$scope module Control_signis $end
$var wire 1 a clk $end
$var wire 4 s" estado [3:0] $end
$var wire 3 t" tipo [2:0] $end
$var wire 7 u" funct7 [6:0] $end
$var wire 3 v" funct3 [2:0] $end
$var reg 4 w" alucontrol [3:0] $end
$var reg 2 x" aluop [1:0] $end
$var reg 1 \" alusrc $end
$var reg 1 [" branch $end
$var reg 1 y" memread $end
$var reg 1 2" memtoreg $end
$var reg 1 z" memwrite $end
$var reg 1 j regiwrite $end
$upscope $end
$scope module Decoding $end
$var wire 1 a clk $end
$var wire 4 {" estado [3:0] $end
$var wire 32 |" instrucao [31:0] $end
$var reg 3 }" funct3 [2:0] $end
$var reg 7 ~" funct7 [6:0] $end
$var reg 12 !# imediato [11:0] $end
$var reg 1 1" negativo $end
$var reg 7 "# opcode [6:0] $end
$var reg 5 ## rd [4:0] $end
$var reg 5 $# rs1 [4:0] $end
$var reg 5 %# rs2 [4:0] $end
$var reg 3 &# tipo [2:0] $end
$upscope $end
$scope module Memory $end
$var wire 32 '# aluresult2 [31:0] $end
$var wire 1 a clk $end
$var wire 4 (# estado [3:0] $end
$var wire 12 )# imediato [11:0] $end
$var wire 1 c memread $end
$var wire 1 d memwrite $end
$var wire 32 *# ler_dados2 [31:0] $end
$var wire 1 U" is_sb $end
$var wire 1 V" is_lb $end
$var wire 5 +# addr_word [4:0] $end
$var wire 2 ,# addr_byte [1:0] $end
$var reg 8 -# byte_data [7:0] $end
$var reg 32 .# lb_data [31:0] $end
$var reg 32 /# mem0 [31:0] $end
$var reg 32 0# mem1 [31:0] $end
$var reg 32 1# mem10 [31:0] $end
$var reg 32 2# mem11 [31:0] $end
$var reg 32 3# mem12 [31:0] $end
$var reg 32 4# mem13 [31:0] $end
$var reg 32 5# mem14 [31:0] $end
$var reg 32 6# mem15 [31:0] $end
$var reg 32 7# mem16 [31:0] $end
$var reg 32 8# mem17 [31:0] $end
$var reg 32 9# mem18 [31:0] $end
$var reg 32 :# mem19 [31:0] $end
$var reg 32 ;# mem2 [31:0] $end
$var reg 32 <# mem20 [31:0] $end
$var reg 32 =# mem21 [31:0] $end
$var reg 32 ># mem22 [31:0] $end
$var reg 32 ?# mem23 [31:0] $end
$var reg 32 @# mem24 [31:0] $end
$var reg 32 A# mem25 [31:0] $end
$var reg 32 B# mem26 [31:0] $end
$var reg 32 C# mem27 [31:0] $end
$var reg 32 D# mem28 [31:0] $end
$var reg 32 E# mem29 [31:0] $end
$var reg 32 F# mem3 [31:0] $end
$var reg 32 G# mem30 [31:0] $end
$var reg 32 H# mem31 [31:0] $end
$var reg 32 I# mem4 [31:0] $end
$var reg 32 J# mem5 [31:0] $end
$var reg 32 K# mem6 [31:0] $end
$var reg 32 L# mem7 [31:0] $end
$var reg 32 M# mem8 [31:0] $end
$var reg 32 N# mem9 [31:0] $end
$var reg 32 O# reddataM [31:0] $end
$var reg 32 P# writedataR [31:0] $end
$upscope $end
$scope module Read_instructions $end
$var wire 1 a clk $end
$var wire 4 Q# estado [3:0] $end
$var wire 32 R# PC [31:0] $end
$var reg 32 S# instrucao [31:0] $end
$upscope $end
$scope module Registrars $end
$var wire 1 a clk $end
$var wire 4 T# estado [3:0] $end
$var wire 32 U# ler_dados1 [31:0] $end
$var wire 32 V# ler_dados2 [31:0] $end
$var wire 1 2" memtoreg $end
$var wire 5 W# rd [4:0] $end
$var wire 32 X# reddataM [31:0] $end
$var wire 1 j regiwrite $end
$var wire 5 Y# rs1 [4:0] $end
$var wire 5 Z# rs2 [4:0] $end
$var wire 32 [# writedataR [31:0] $end
$var reg 32 \# reg0 [31:0] $end
$var reg 32 ]# reg1 [31:0] $end
$var reg 32 ^# reg10 [31:0] $end
$var reg 32 _# reg11 [31:0] $end
$var reg 32 `# reg12 [31:0] $end
$var reg 32 a# reg13 [31:0] $end
$var reg 32 b# reg14 [31:0] $end
$var reg 32 c# reg15 [31:0] $end
$var reg 32 d# reg16 [31:0] $end
$var reg 32 e# reg17 [31:0] $end
$var reg 32 f# reg18 [31:0] $end
$var reg 32 g# reg19 [31:0] $end
$var reg 32 h# reg2 [31:0] $end
$var reg 32 i# reg20 [31:0] $end
$var reg 32 j# reg21 [31:0] $end
$var reg 32 k# reg22 [31:0] $end
$var reg 32 l# reg23 [31:0] $end
$var reg 32 m# reg24 [31:0] $end
$var reg 32 n# reg25 [31:0] $end
$var reg 32 o# reg26 [31:0] $end
$var reg 32 p# reg27 [31:0] $end
$var reg 32 q# reg28 [31:0] $end
$var reg 32 r# reg29 [31:0] $end
$var reg 32 s# reg3 [31:0] $end
$var reg 32 t# reg30 [31:0] $end
$var reg 32 u# reg31 [31:0] $end
$var reg 32 v# reg4 [31:0] $end
$var reg 32 w# reg5 [31:0] $end
$var reg 32 x# reg6 [31:0] $end
$var reg 32 y# reg7 [31:0] $end
$var reg 32 z# reg8 [31:0] $end
$var reg 32 {# reg9 [31:0] $end
$upscope $end
$scope module SomaPC $end
$var wire 1 a clk $end
$var wire 4 |# estado [3:0] $end
$var wire 12 }# imediato [11:0] $end
$var wire 1 1" negativo $end
$var wire 1 /" pcsrc $end
$var reg 32 ~# PC [31:0] $end
$upscope $end
$scope module control $end
$var wire 3 !$ funct3 [2:0] $end
$var wire 7 "$ opcode [6:0] $end
$var reg 1 V" is_lb $end
$var reg 1 U" is_sb $end
$var reg 1 #$ memread $end
$var reg 1 $$ memwrite $end
$var reg 1 i regwrite $end
$upscope $end
$upscope $end
$upscope $end
$enddefinitions $end
$comment Show the parameter values. $end
$dumpall
b100 k"
b1000 j"
b11 i"
b0 h"
b1 g"
b1001 f"
b10 e"
b111 d"
b110 c"
b1111 b"
b101 a"
$end
#0
$dumpvars
x$$
x#$
bx "$
bx !$
b0 ~#
bx }#
b0 |#
b0 {#
b0 z#
b0 y#
b0 x#
b0 w#
b0 v#
b0 u#
b0 t#
b0 s#
b0 r#
b0 q#
b0 p#
b0 o#
b0 n#
b0 m#
b0 l#
b0 k#
b0 j#
b0 i#
b0 h#
b0 g#
b0 f#
b0 e#
b0 d#
b0 c#
b0 b#
b0 a#
b0 `#
b0 _#
b0 ^#
b0 ]#
b0 \#
bx [#
bx Z#
bx Y#
bx X#
bx W#
bx V#
bx U#
b0 T#
bx S#
b0 R#
b0 Q#
bx P#
bx O#
b0 N#
b0 M#
b0 L#
b0 K#
b0 J#
b10101010 I#
b0 H#
b0 G#
b0 F#
b0 E#
b0 D#
b0 C#
b0 B#
b0 A#
b0 @#
b0 ?#
b0 >#
b0 =#
b0 <#
b0 ;#
b0 :#
b0 9#
b0 8#
b0 7#
b0 6#
b0 5#
b0 4#
b0 3#
b0 2#
b0 1#
b0 0#
b0 /#
b0 .#
b0 -#
bx ,#
bx +#
bx *#
bx )#
b0 (#
bx '#
bx &#
bx %#
bx $#
bx ##
bx "#
bx !#
bx ~"
bx }"
bx |"
b0 {"
xz"
xy"
bx x"
bx w"
bx v"
bx u"
bx t"
b0 s"
bx r"
bx q"
bx p"
bx o"
bx n"
b0 m"
b0 l"
b0 `"
bx _"
x^"
bx ]"
x\"
x["
bx Z"
bx Y"
bx X"
bx W"
xV"
xU"
bx T"
bx S"
b0 R"
b0 Q"
b0 P"
b0 O"
b0 N"
b0 M"
b0 L"
b0 K"
b0 J"
b0 I"
b0 H"
b0 G"
b0 F"
b0 E"
b0 D"
b0 C"
b0 B"
b0 A"
b0 @"
b0 ?"
b0 >"
b0 ="
b0 <"
b0 ;"
b0 :"
b0 9"
b10101010 8"
b0 7"
b0 6"
b0 5"
b0 4"
b0 3"
x2"
x1"
bx 0"
x/"
bx ."
bx -"
b0 ,"
b0 +"
b0 *"
b0 )"
b0 ("
b0 '"
b0 &"
b0 %"
b0 $"
b0 #"
b0 ""
b0 !"
b0 ~
b0 }
b0 |
b0 {
b0 z
b0 y
b0 x
b0 w
b0 v
b0 u
b0 t
b0 s
b0 r
b0 q
b0 p
b0 o
b0 n
b0 m
b0 l
b0 k
xj
xi
bx h
bx g
bx f
bx e
xd
xc
0b
0a
b0 `
b0 _
b0 ^
b0 ]
b0 \
b0 [
b0 Z
b0 Y
b0 X
b0 W
b0 V
b0 U
b0 T
b0 S
b0 R
b0 Q
b0 P
b0 O
b0 N
b0 M
b0 L
b0 K
b0 J
b0 I
b0 H
b0 G
b10101010 F
b0 E
b0 D
b0 C
b0 B
b0 A
b0 @
b0 ?
b0 >
b0 =
b0 <
b0 ;
b0 :
b0 9
b0 8
b0 7
b0 6
b0 5
b0 4
b0 3
b0 2
b0 1
b0 0
b0 /
b0 .
b0 -
b0 ,
b0 +
b0 *
b0 )
b0 (
b0 '
b0 &
b0 %
b0 $
b0 #
b0 "
b0 !
$end
#1
b1000111100000000000010010011 W"
b1000111100000000000010010011 |"
b1000111100000000000010010011 S#
b1 l"
b1 m"
b1 s"
b1 {"
b1 (#
b1 Q#
b1 T#
b1 |#
1a
#2
0a
#3
0U"
0V"
0i
0$$
0#$
b1 f
b1 t"
b1 &#
01"
b10001111 X"
b10001111 p"
b10001111 !#
b10001111 )#
b10001111 }#
b0 Z"
b0 v"
b0 }"
b0 !$
b0 T"
b0 o"
b0 U#
b0 h
b0 $#
b0 Y#
b1 ."
b1 ##
b1 W#
b10 l"
b10 m"
b10 s"
b10 {"
b10 (#
b10 Q#
b10 T#
b10 |#
1a
#4
0a
#5
0/"
1\"
02"
0["
b11 _"
b11 q"
b11 w"
b101 l"
b101 m"
b101 s"
b101 {"
b101 (#
b101 Q#
b101 T#
b101 |#
1a
#6
0a
#7
b11 +#
b11 ,#
0^"
b10001111 ]"
b10001111 r"
b10001111 '#
b1111 l"
b1111 m"
b1111 s"
b1111 {"
b1111 (#
b1111 Q#
b1111 T#
b1111 |#
1a
#8
0a
#9
0c
0y"
0d
0z"
1j
b11 l"
b11 m"
b11 s"
b11 {"
b11 (#
b11 Q#
b11 T#
b11 |#
1a
#10
0a
#11
b10001111 e
b10001111 P#
b10001111 [#
b0 -"
b0 O#
b0 X#
b100 l"
b100 m"
b100 s"
b100 {"
b100 (#
b100 Q#
b100 T#
b100 |#
1a
#12
0a
#13
b110 l"
b110 m"
b110 s"
b110 {"
b110 (#
b110 Q#
b110 T#
b110 |#
1a
#14
0a
#15
b111 l"
b111 m"
b111 s"
b111 {"
b111 (#
b111 Q#
b111 T#
b111 |#
1a
#16
0a
#17
b10001111 ?
b10001111 +"
b10001111 ]#
b1000 l"
b1000 m"
b1000 s"
b1000 {"
b1000 (#
b1000 Q#
b1000 T#
b1000 |#
1a
#18
0a
#19
b1 `"
b1 R#
b1 ~#
b0 l"
b0 m"
b0 s"
b0 {"
b0 (#
b0 Q#
b0 T#
b0 |#
1a
#20
0a
#21
b1000000100000011 W"
b1000000100000011 |"
b1000000100000011 S#
b1 l"
b1 m"
b1 s"
b1 {"
b1 (#
b1 Q#
b1 T#
b1 |#
1a
#22
0a
#23
b0 f
b0 t"
b0 &#
b0 X"
b0 p"
b0 !#
b0 )#
b0 }#
b10001111 T"
b10001111 o"
b10001111 U#
b1 h
b1 $#
b1 Y#
b10 ."
b10 ##
b10 W#
b10 l"
b10 m"
b10 s"
b10 {"
b10 (#
b10 Q#
b10 T#
b10 |#
1a
#24
0a
#25
12"
b1100 _"
b1100 q"
b1100 w"
xc
1y"
xj
b101 l"
b101 m"
b101 s"
b101 {"
b101 (#
b101 Q#
b101 T#
b101 |#
1a
#26
0a
#27
b1111 l"
b1111 m"
b1111 s"
b1111 {"
b1111 (#
b1111 Q#
b1111 T#
b1111 |#
1a
#28
0a
#29
1j
b11 l"
b11 m"
b11 s"
b11 {"
b11 (#
b11 Q#
b11 T#
b11 |#
1a
#30
0a
#31
b100 l"
b100 m"
b100 s"
b100 {"
b100 (#
b100 Q#
b100 T#
b100 |#
1a
#32
0a
#33
b110 l"
b110 m"
b110 s"
b110 {"
b110 (#
b110 Q#
b110 T#
b110 |#
1a
#34
0a
#35
b111 l"
b111 m"
b111 s"
b111 {"
b111 (#
b111 Q#
b111 T#
b111 |#
1a
#36
0a
#37
b1000 l"
b1000 m"
b1000 s"
b1000 {"
b1000 (#
b1000 Q#
b1000 T#
b1000 |#
1a
#38
0a
#39
b10 `"
b10 R#
b10 ~#
b0 l"
b0 m"
b0 s"
b0 {"
b0 (#
b0 Q#
b0 T#
b0 |#
1a
#40
0a
#41
bx W"
bx |"
bx S#
b1 l"
b1 m"
b1 s"
b1 {"
b1 (#
b1 Q#
b1 T#
b1 |#
1a
#42
0a
#43
b1001 l"
b1001 m"
b1001 s"
b1001 {"
b1001 (#
b1001 Q#
b1001 T#
b1001 |#
1a
#44
0a
#45
b0 l"
b0 m"
b0 s"
b0 {"
b0 (#
b0 Q#
b0 T#
b0 |#
1a
#46
0a
#47
b1 l"
b1 m"
b1 s"
b1 {"
b1 (#
b1 Q#
b1 T#
b1 |#
1a
#48
0a
#49
b1001 l"
b1001 m"
b1001 s"
b1001 {"
b1001 (#
b1001 Q#
b1001 T#
b1001 |#
1a
#50
0a
#51
b0 l"
b0 m"
b0 s"
b0 {"
b0 (#
b0 Q#
b0 T#
b0 |#
1a
#52
0a
#53
b1 l"
b1 m"
b1 s"
b1 {"
b1 (#
b1 Q#
b1 T#
b1 |#
1a
#54
0a
#55
b1001 l"
b1001 m"
b1001 s"
b1001 {"
b1001 (#
b1001 Q#
b1001 T#
b1001 |#
1a
#56
0a
#57
b0 l"
b0 m"
b0 s"
b0 {"
b0 (#
b0 Q#
b0 T#
b0 |#
1a
#58
0a
#59
b1 l"
b1 m"
b1 s"
b1 {"
b1 (#
b1 Q#
b1 T#
b1 |#
1a
#60
0a
#61
b1001 l"
b1001 m"
b1001 s"
b1001 {"
b1001 (#
b1001 Q#
b1001 T#
b1001 |#
1a
#62
0a
#63
b0 l"
b0 m"
b0 s"
b0 {"
b0 (#
b0 Q#
b0 T#
b0 |#
1a
#64
0a
#65
b1 l"
b1 m"
b1 s"
b1 {"
b1 (#
b1 Q#
b1 T#
b1 |#
1a
#66
0a
#67
b1001 l"
b1001 m"
b1001 s"
b1001 {"
b1001 (#
b1001 Q#
b1001 T#
b1001 |#
1a
#68
0a
#69
b0 l"
b0 m"
b0 s"
b0 {"
b0 (#
b0 Q#
b0 T#
b0 |#
1a
#70
0a
#71
b1 l"
b1 m"
b1 s"
b1 {"
b1 (#
b1 Q#
b1 T#
b1 |#
1a
#72
0a
#73
b1001 l"
b1001 m"
b1001 s"
b1001 {"
b1001 (#
b1001 Q#
b1001 T#
b1001 |#
1a
#74
0a
#75
b0 l"
b0 m"
b0 s"
b0 {"
b0 (#
b0 Q#
b0 T#
b0 |#
1a
#76
0a
#77
b1 l"
b1 m"
b1 s"
b1 {"
b1 (#
b1 Q#
b1 T#
b1 |#
1a
#78
0a
#79
b1001 l"
b1001 m"
b1001 s"
b1001 {"
b1001 (#
b1001 Q#
b1001 T#
b1001 |#
1a
#80
0a
#81
b0 l"
b0 m"
b0 s"
b0 {"
b0 (#
b0 Q#
b0 T#
b0 |#
1a
#82
0a
#83
b1 l"
b1 m"
b1 s"
b1 {"
b1 (#
b1 Q#
b1 T#
b1 |#
1a
#84
0a
#85
b1001 l"
b1001 m"
b1001 s"
b1001 {"
b1001 (#
b1001 Q#
b1001 T#
b1001 |#
1a
#86
0a
#87
b0 l"
b0 m"
b0 s"
b0 {"
b0 (#
b0 Q#
b0 T#
b0 |#
1a
#88
0a
#89
b1 l"
b1 m"
b1 s"
b1 {"
b1 (#
b1 Q#
b1 T#
b1 |#
1a
#90
0a
#91
b1001 l"
b1001 m"
b1001 s"
b1001 {"
b1001 (#
b1001 Q#
b1001 T#
b1001 |#
1a
#92
0a
#93
b0 l"
b0 m"
b0 s"
b0 {"
b0 (#
b0 Q#
b0 T#
b0 |#
1a
#94
0a
#95
b1 l"
b1 m"
b1 s"
b1 {"
b1 (#
b1 Q#
b1 T#
b1 |#
1a
#96
0a
#97
b1001 l"
b1001 m"
b1001 s"
b1001 {"
b1001 (#
b1001 Q#
b1001 T#
b1001 |#
1a
#98
0a
#99
b0 l"
b0 m"
b0 s"
b0 {"
b0 (#
b0 Q#
b0 T#
b0 |#
1a
#100
0a
#101
b1 l"
b1 m"
b1 s"
b1 {"
b1 (#
b1 Q#
b1 T#
b1 |#
1a
#102
0a
#103
b1001 l"
b1001 m"
b1001 s"
b1001 {"
b1001 (#
b1001 Q#
b1001 T#
b1001 |#
1a
#104
0a
#105
b0 l"
b0 m"
b0 s"
b0 {"
b0 (#
b0 Q#
b0 T#
b0 |#
1a
#106
0a
#107
b1 l"
b1 m"
b1 s"
b1 {"
b1 (#
b1 Q#
b1 T#
b1 |#
1a
#108
0a
#109
b1001 l"
b1001 m"
b1001 s"
b1001 {"
b1001 (#
b1001 Q#
b1001 T#
b1001 |#
1a
#110
0a
#111
b0 l"
b0 m"
b0 s"
b0 {"
b0 (#
b0 Q#
b0 T#
b0 |#
1a
#112
0a
#113
b1 l"
b1 m"
b1 s"
b1 {"
b1 (#
b1 Q#
b1 T#
b1 |#
1a
#114
0a
#115
b1001 l"
b1001 m"
b1001 s"
b1001 {"
b1001 (#
b1001 Q#
b1001 T#
b1001 |#
1a
#116
0a
#117
b0 l"
b0 m"
b0 s"
b0 {"
b0 (#
b0 Q#
b0 T#
b0 |#
1a
#118
0a
#119
b1 l"
b1 m"
b1 s"
b1 {"
b1 (#
b1 Q#
b1 T#
b1 |#
1a
#120
0a
#121
b1001 l"
b1001 m"
b1001 s"
b1001 {"
b1001 (#
b1001 Q#
b1001 T#
b1001 |#
1a
#122
0a
#123
b0 l"
b0 m"
b0 s"
b0 {"
b0 (#
b0 Q#
b0 T#
b0 |#
1a
#124
0a
#125
b1 l"
b1 m"
b1 s"
b1 {"
b1 (#
b1 Q#
b1 T#
b1 |#
1a
#126
0a
#127
b1001 l"
b1001 m"
b1001 s"
b1001 {"
b1001 (#
b1001 Q#
b1001 T#
b1001 |#
1a
#128
0a
#129
b0 l"
b0 m"
b0 s"
b0 {"
b0 (#
b0 Q#
b0 T#
b0 |#
1a
#130
0a
#131
b1 l"
b1 m"
b1 s"
b1 {"
b1 (#
b1 Q#
b1 T#
b1 |#
1a
#132
0a
#133
b1001 l"
b1001 m"
b1001 s"
b1001 {"
b1001 (#
b1001 Q#
b1001 T#
b1001 |#
1a
#134
0a
#135
b0 l"
b0 m"
b0 s"
b0 {"
b0 (#
b0 Q#
b0 T#
b0 |#
1a
#136
0a
#137
b1 l"
b1 m"
b1 s"
b1 {"
b1 (#
b1 Q#
b1 T#
b1 |#
1a
#138
0a
#139
b1001 l"
b1001 m"
b1001 s"
b1001 {"
b1001 (#
b1001 Q#
b1001 T#
b1001 |#
1a
#140
0a
#141
b0 l"
b0 m"
b0 s"
b0 {"
b0 (#
b0 Q#
b0 T#
b0 |#
1a
#142
0a
#143
b1 l"
b1 m"
b1 s"
b1 {"
b1 (#
b1 Q#
b1 T#
b1 |#
1a
#144
0a
#145
b1001 l"
b1001 m"
b1001 s"
b1001 {"
b1001 (#
b1001 Q#
b1001 T#
b1001 |#
1a
#146
0a
#147
b0 l"
b0 m"
b0 s"
b0 {"
b0 (#
b0 Q#
b0 T#
b0 |#
1a
#148
0a
#149
b1 l"
b1 m"
b1 s"
b1 {"
b1 (#
b1 Q#
b1 T#
b1 |#
1a
#150
0a
#151
b1001 l"
b1001 m"
b1001 s"
b1001 {"
b1001 (#
b1001 Q#
b1001 T#
b1001 |#
1a
#152
0a
#153
b0 l"
b0 m"
b0 s"
b0 {"
b0 (#
b0 Q#
b0 T#
b0 |#
1a
#154
0a
#155
b1 l"
b1 m"
b1 s"
b1 {"
b1 (#
b1 Q#
b1 T#
b1 |#
1a
#156
0a
#157
b1001 l"
b1001 m"
b1001 s"
b1001 {"
b1001 (#
b1001 Q#
b1001 T#
b1001 |#
1a
#158
0a
#159
b0 l"
b0 m"
b0 s"
b0 {"
b0 (#
b0 Q#
b0 T#
b0 |#
1a
#160
0a
#161
b1 l"
b1 m"
b1 s"
b1 {"
b1 (#
b1 Q#
b1 T#
b1 |#
1a
#162
0a
#163
b1001 l"
b1001 m"
b1001 s"
b1001 {"
b1001 (#
b1001 Q#
b1001 T#
b1001 |#
1a
#164
0a
#165
b0 l"
b0 m"
b0 s"
b0 {"
b0 (#
b0 Q#
b0 T#
b0 |#
1a
#166
0a
#167
b1 l"
b1 m"
b1 s"
b1 {"
b1 (#
b1 Q#
b1 T#
b1 |#
1a
#168
0a
#169
b1001 l"
b1001 m"
b1001 s"
b1001 {"
b1001 (#
b1001 Q#
b1001 T#
b1001 |#
1a
#170
0a
#171
b0 l"
b0 m"
b0 s"
b0 {"
b0 (#
b0 Q#
b0 T#
b0 |#
1a
#172
0a
#173
b1 l"
b1 m"
b1 s"
b1 {"
b1 (#
b1 Q#
b1 T#
b1 |#
1a
#174
0a
#175
b1001 l"
b1001 m"
b1001 s"
b1001 {"
b1001 (#
b1001 Q#
b1001 T#
b1001 |#
1a
#176
0a
#177
b0 l"
b0 m"
b0 s"
b0 {"
b0 (#
b0 Q#
b0 T#
b0 |#
1a
#178
0a
#179
b1 l"
b1 m"
b1 s"
b1 {"
b1 (#
b1 Q#
b1 T#
b1 |#
1a
#180
0a
#181
b1001 l"
b1001 m"
b1001 s"
b1001 {"
b1001 (#
b1001 Q#
b1001 T#
b1001 |#
1a
#182
0a
#183
b0 l"
b0 m"
b0 s"
b0 {"
b0 (#
b0 Q#
b0 T#
b0 |#
1a
#184
0a
#185
b1 l"
b1 m"
b1 s"
b1 {"
b1 (#
b1 Q#
b1 T#
b1 |#
1a
#186
0a
#187
b1001 l"
b1001 m"
b1001 s"
b1001 {"
b1001 (#
b1001 Q#
b1001 T#
b1001 |#
1a
#188
0a
#189
b0 l"
b0 m"
b0 s"
b0 {"
b0 (#
b0 Q#
b0 T#
b0 |#
1a
#190
0a
#191
b1 l"
b1 m"
b1 s"
b1 {"
b1 (#
b1 Q#
b1 T#
b1 |#
1a
#192
0a
#193
b1001 l"
b1001 m"
b1001 s"
b1001 {"
b1001 (#
b1001 Q#
b1001 T#
b1001 |#
1a
#194
0a
#195
b0 l"
b0 m"
b0 s"
b0 {"
b0 (#
b0 Q#
b0 T#
b0 |#
1a
#196
0a
#197
b1 l"
b1 m"
b1 s"
b1 {"
b1 (#
b1 Q#
b1 T#
b1 |#
1a
#198
0a
