Run/testbench.vcd
$date
	Mon May 26 21:15:41 2025
$end
$version
	Icarus Verilog
$end
$timescale
	1s
$end
$scope module caminho_tb $end
$var wire 32 ! reg9 [31:0] $end
$var wire 32 " reg8 [31:0] $end
$var wire 32 # reg7 [31:0] $end
$var wire 32 $ reg6 [31:0] $end
$var wire 32 % reg5 [31:0] $end
$var wire 32 & reg4 [31:0] $end
$var wire 32 ' reg31 [31:0] $end
$var wire 32 ( reg30 [31:0] $end
$var wire 32 ) reg3 [31:0] $end
$var wire 32 * reg29 [31:0] $end
$var wire 32 + reg28 [31:0] $end
$var wire 32 , reg27 [31:0] $end
$var wire 32 - reg26 [31:0] $end
$var wire 32 . reg25 [31:0] $end
$var wire 32 / reg24 [31:0] $end
$var wire 32 0 reg23 [31:0] $end
$var wire 32 1 reg22 [31:0] $end
$var wire 32 2 reg21 [31:0] $end
$var wire 32 3 reg20 [31:0] $end
$var wire 32 4 reg2 [31:0] $end
$var wire 32 5 reg19 [31:0] $end
$var wire 32 6 reg18 [31:0] $end
$var wire 32 7 reg17 [31:0] $end
$var wire 32 8 reg16 [31:0] $end
$var wire 32 9 reg15 [31:0] $end
$var wire 32 : reg14 [31:0] $end
$var wire 32 ; reg13 [31:0] $end
$var wire 32 < reg12 [31:0] $end
$var wire 32 = reg11 [31:0] $end
$var wire 32 > reg10 [31:0] $end
$var wire 32 ? reg1 [31:0] $end
$var wire 32 @ reg0 [31:0] $end
$var wire 32 A mem9 [31:0] $end
$var wire 32 B mem8 [31:0] $end
$var wire 32 C mem7 [31:0] $end
$var wire 32 D mem6 [31:0] $end
$var wire 32 E mem5 [31:0] $end
$var wire 32 F mem4 [31:0] $end
$var wire 32 G mem31 [31:0] $end
$var wire 32 H mem30 [31:0] $end
$var wire 32 I mem3 [31:0] $end
$var wire 32 J mem29 [31:0] $end
$var wire 32 K mem28 [31:0] $end
$var wire 32 L mem27 [31:0] $end
$var wire 32 M mem26 [31:0] $end
$var wire 32 N mem25 [31:0] $end
$var wire 32 O mem24 [31:0] $end
$var wire 32 P mem23 [31:0] $end
$var wire 32 Q mem22 [31:0] $end
$var wire 32 R mem21 [31:0] $end
$var wire 32 S mem20 [31:0] $end
$var wire 32 T mem2 [31:0] $end
$var wire 32 U mem19 [31:0] $end
$var wire 32 V mem18 [31:0] $end
$var wire 32 W mem17 [31:0] $end
$var wire 32 X mem16 [31:0] $end
$var wire 32 Y mem15 [31:0] $end
$var wire 32 Z mem14 [31:0] $end
$var wire 32 [ mem13 [31:0] $end
$var wire 32 \ mem12 [31:0] $end
$var wire 32 ] mem11 [31:0] $end
$var wire 32 ^ mem10 [31:0] $end
$var wire 32 _ mem1 [31:0] $end
$var wire 32 ` mem0 [31:0] $end
$var reg 1 a clk_tb $end
$var reg 1 b rst_tb $end
$scope module main $end
$var wire 1 a clk $end
$var wire 1 c is_lb $end
$var wire 1 d is_sb $end
$var wire 1 b rst $end
$var wire 32 e writedataR [31:0] $end
$var wire 3 f tipo [2:0] $end
$var wire 5 g rs2 [4:0] $end
$var wire 5 h rs1 [4:0] $end
$var wire 1 i regiwrite $end
$var wire 32 j reg9 [31:0] $end
$var wire 32 k reg8 [31:0] $end
$var wire 32 l reg7 [31:0] $end
$var wire 32 m reg6 [31:0] $end
$var wire 32 n reg5 [31:0] $end
$var wire 32 o reg4 [31:0] $end
$var wire 32 p reg31 [31:0] $end
$var wire 32 q reg30 [31:0] $end
$var wire 32 r reg3 [31:0] $end
$var wire 32 s reg29 [31:0] $end
$var wire 32 t reg28 [31:0] $end
$var wire 32 u reg27 [31:0] $end
$var wire 32 v reg26 [31:0] $end
$var wire 32 w reg25 [31:0] $end
$var wire 32 x reg24 [31:0] $end
$var wire 32 y reg23 [31:0] $end
$var wire 32 z reg22 [31:0] $end
$var wire 32 { reg21 [31:0] $end
$var wire 32 | reg20 [31:0] $end
$var wire 32 } reg2 [31:0] $end
$var wire 32 ~ reg19 [31:0] $end
$var wire 32 !" reg18 [31:0] $end
$var wire 32 "" reg17 [31:0] $end
$var wire 32 #" reg16 [31:0] $end
$var wire 32 $" reg15 [31:0] $end
$var wire 32 %" reg14 [31:0] $end
$var wire 32 &" reg13 [31:0] $end
$var wire 32 '" reg12 [31:0] $end
$var wire 32 (" reg11 [31:0] $end
$var wire 32 )" reg10 [31:0] $end
$var wire 32 *" reg1 [31:0] $end
$var wire 32 +" reg0 [31:0] $end
$var wire 32 ," reddataM [31:0] $end
$var wire 5 -" rd [4:0] $end
$var wire 1 ." pcsrc $end
$var wire 7 /" opcode [6:0] $end
$var wire 1 0" negativo $end
$var wire 1 1" memwrite $end
$var wire 1 2" memtoreg $end
$var wire 1 3" memread $end
$var wire 32 4" mem9 [31:0] $end
$var wire 32 5" mem8 [31:0] $end
$var wire 32 6" mem7 [31:0] $end
$var wire 32 7" mem6 [31:0] $end
$var wire 32 8" mem5 [31:0] $end
$var wire 32 9" mem4 [31:0] $end
$var wire 32 :" mem31 [31:0] $end
$var wire 32 ;" mem30 [31:0] $end
$var wire 32 <" mem3 [31:0] $end
$var wire 32 =" mem29 [31:0] $end
$var wire 32 >" mem28 [31:0] $end
$var wire 32 ?" mem27 [31:0] $end
$var wire 32 @" mem26 [31:0] $end
$var wire 32 A" mem25 [31:0] $end
$var wire 32 B" mem24 [31:0] $end
$var wire 32 C" mem23 [31:0] $end
$var wire 32 D" mem22 [31:0] $end
$var wire 32 E" mem21 [31:0] $end
$var wire 32 F" mem20 [31:0] $end
$var wire 32 G" mem2 [31:0] $end
$var wire 32 H" mem19 [31:0] $end
$var wire 32 I" mem18 [31:0] $end
$var wire 32 J" mem17 [31:0] $end
$var wire 32 K" mem16 [31:0] $end
$var wire 32 L" mem15 [31:0] $end
$var wire 32 M" mem14 [31:0] $end
$var wire 32 N" mem13 [31:0] $end
$var wire 32 O" mem12 [31:0] $end
$var wire 32 P" mem11 [31:0] $end
$var wire 32 Q" mem10 [31:0] $end
$var wire 32 R" mem1 [31:0] $end
$var wire 32 S" mem0 [31:0] $end
$var wire 32 T" ler_dados2 [31:0] $end
$var wire 32 U" ler_dados1 [31:0] $end
$var wire 32 V" instrucao [31:0] $end
$var wire 12 W" imediato [11:0] $end
$var wire 7 X" funct7 [6:0] $end
$var wire 3 Y" funct3 [2:0] $end
$var wire 1 Z" branch $end
$var wire 1 [" alusrc $end
$var wire 32 \" aluresult2 [31:0] $end
$var wire 1 ]" aluresult1 $end
$var wire 4 ^" alucontrol [3:0] $end
$var wire 32 _" PC [31:0] $end
$var parameter 4 `" AUX1 $end
$var parameter 4 a" AUX2 $end
$var parameter 4 b" AUX3 $end
$var parameter 4 c" AUX4 $end
$var parameter 4 d" EX $end
$var parameter 4 e" FIM $end
$var parameter 4 f" ID $end
$var parameter 4 g" IF $end
$var parameter 4 h" MEM $end
$var parameter 4 i" SUMPC $end
$var parameter 4 j" WB $end
$var reg 4 k" estado [3:0] $end
$scope module Alu $end
$var wire 1 a clk $end
$var wire 4 l" estado [3:0] $end
$var wire 1 ." pcsrc $end
$var wire 1 0" negativo $end
$var wire 32 m" ler_dados2 [31:0] $end
$var wire 32 n" ler_dados1 [31:0] $end
$var wire 12 o" imediato [11:0] $end
$var wire 1 Z" branch $end
$var wire 1 [" alusrc $end
$var wire 4 p" alucontrol [3:0] $end
$var reg 1 ]" aluresult1 $end
$var reg 32 q" aluresult2 [31:0] $end
$var reg 32 r" temp [31:0] $end
$upscope $end
$scope module Control_signis $end
$var wire 1 a clk $end
$var wire 4 s" estado [3:0] $end
$var wire 3 t" tipo [2:0] $end
$var wire 7 u" funct7 [6:0] $end
$var wire 3 v" funct3 [2:0] $end
$var reg 4 w" alucontrol [3:0] $end
$var reg 2 x" aluop [1:0] $end
$var reg 1 [" alusrc $end
$var reg 1 Z" branch $end
$var reg 1 3" memread $end
$var reg 1 2" memtoreg $end
$var reg 1 1" memwrite $end
$var reg 1 i regiwrite $end
$upscope $end
$scope module Decoding $end
$var wire 1 a clk $end
$var wire 4 y" estado [3:0] $end
$var wire 32 z" instrucao [31:0] $end
$var reg 3 {" funct3 [2:0] $end
$var reg 7 |" funct7 [6:0] $end
$var reg 12 }" imediato [11:0] $end
$var reg 1 0" negativo $end
$var reg 7 ~" opcode [6:0] $end
$var reg 5 !# rd [4:0] $end
$var reg 5 "# rs1 [4:0] $end
$var reg 5 ## rs2 [4:0] $end
$var reg 3 $# tipo [2:0] $end
$upscope $end
$scope module Memory $end
$var wire 32 %# aluresult2 [31:0] $end
$var wire 1 a clk $end
$var wire 4 &# estado [3:0] $end
$var wire 12 '# imediato [11:0] $end
$var wire 1 c is_lb $end
$var wire 1 d is_sb $end
$var wire 1 3" memread $end
$var wire 1 1" memwrite $end
$var wire 32 (# ler_dados2 [31:0] $end
$var wire 5 )# addr_word [4:0] $end
$var wire 2 *# addr_byte [1:0] $end
$var reg 8 +# byte_data [7:0] $end
$var reg 32 ,# lb_data [31:0] $end
$var reg 32 -# mem0 [31:0] $end
$var reg 32 .# mem1 [31:0] $end
$var reg 32 /# mem10 [31:0] $end
$var reg 32 0# mem11 [31:0] $end
$var reg 32 1# mem12 [31:0] $end
$var reg 32 2# mem13 [31:0] $end
$var reg 32 3# mem14 [31:0] $end
$var reg 32 4# mem15 [31:0] $end
$var reg 32 5# mem16 [31:0] $end
$var reg 32 6# mem17 [31:0] $end
$var reg 32 7# mem18 [31:0] $end
$var reg 32 8# mem19 [31:0] $end
$var reg 32 9# mem2 [31:0] $end
$var reg 32 :# mem20 [31:0] $end
$var reg 32 ;# mem21 [31:0] $end
$var reg 32 <# mem22 [31:0] $end
$var reg 32 =# mem23 [31:0] $end
$var reg 32 ># mem24 [31:0] $end
$var reg 32 ?# mem25 [31:0] $end
$var reg 32 @# mem26 [31:0] $end
$var reg 32 A# mem27 [31:0] $end
$var reg 32 B# mem28 [31:0] $end
$var reg 32 C# mem29 [31:0] $end
$var reg 32 D# mem3 [31:0] $end
$var reg 32 E# mem30 [31:0] $end
$var reg 32 F# mem31 [31:0] $end
$var reg 32 G# mem4 [31:0] $end
$var reg 32 H# mem5 [31:0] $end
$var reg 32 I# mem6 [31:0] $end
$var reg 32 J# mem7 [31:0] $end
$var reg 32 K# mem8 [31:0] $end
$var reg 32 L# mem9 [31:0] $end
$var reg 32 M# reddataM [31:0] $end
$var reg 32 N# writedataR [31:0] $end
$upscope $end
$scope module Read_instructions $end
$var wire 1 a clk $end
$var wire 4 O# estado [3:0] $end
$var wire 32 P# PC [31:0] $end
$var reg 32 Q# instrucao [31:0] $end
$upscope $end
$scope module Registrars $end
$var wire 1 a clk $end
$var wire 4 R# estado [3:0] $end
$var wire 32 S# ler_dados1 [31:0] $end
$var wire 32 T# ler_dados2 [31:0] $end
$var wire 1 2" memtoreg $end
$var wire 5 U# rd [4:0] $end
$var wire 32 V# reddataM [31:0] $end
$var wire 1 i regiwrite $end
$var wire 5 W# rs1 [4:0] $end
$var wire 5 X# rs2 [4:0] $end
$var wire 32 Y# writedataR [31:0] $end
$var reg 32 Z# reg0 [31:0] $end
$var reg 32 [# reg1 [31:0] $end
$var reg 32 \# reg10 [31:0] $end
$var reg 32 ]# reg11 [31:0] $end
$var reg 32 ^# reg12 [31:0] $end
$var reg 32 _# reg13 [31:0] $end
$var reg 32 `# reg14 [31:0] $end
$var reg 32 a# reg15 [31:0] $end
$var reg 32 b# reg16 [31:0] $end
$var reg 32 c# reg17 [31:0] $end
$var reg 32 d# reg18 [31:0] $end
$var reg 32 e# reg19 [31:0] $end
$var reg 32 f# reg2 [31:0] $end
$var reg 32 g# reg20 [31:0] $end
$var reg 32 h# reg21 [31:0] $end
$var reg 32 i# reg22 [31:0] $end
$var reg 32 j# reg23 [31:0] $end
$var reg 32 k# reg24 [31:0] $end
$var reg 32 l# reg25 [31:0] $end
$var reg 32 m# reg26 [31:0] $end
$var reg 32 n# reg27 [31:0] $end
$var reg 32 o# reg28 [31:0] $end
$var reg 32 p# reg29 [31:0] $end
$var reg 32 q# reg3 [31:0] $end
$var reg 32 r# reg30 [31:0] $end
$var reg 32 s# reg31 [31:0] $end
$var reg 32 t# reg4 [31:0] $end
$var reg 32 u# reg5 [31:0] $end
$var reg 32 v# reg6 [31:0] $end
$var reg 32 w# reg7 [31:0] $end
$var reg 32 x# reg8 [31:0] $end
$var reg 32 y# reg9 [31:0] $end
$upscope $end
$scope module SomaPC $end
$var wire 1 a clk $end
$var wire 4 z# estado [3:0] $end
$var wire 12 {# imediato [11:0] $end
$var wire 1 0" negativo $end
$var wire 1 ." pcsrc $end
$var reg 32 |# PC [31:0] $end
$upscope $end
$upscope $end
$upscope $end
$enddefinitions $end
$comment Show the parameter values. $end
$dumpall
b100 j"
b1000 i"
b11 h"
b0 g"
b1 f"
b1001 e"
b10 d"
b111 c"
b110 b"
b1111 a"
b101 `"
$end
#0
$dumpvars
b0 |#
bx {#
b0 z#
b0 y#
b0 x#
b0 w#
b0 v#
b0 u#
b0 t#
b0 s#
b0 r#
b0 q#
b0 p#
b0 o#
b0 n#
b0 m#
b0 l#
b0 k#
b0 j#
b0 i#
b0 h#
b0 g#
b0 f#
b0 e#
b0 d#
b0 c#
b0 b#
b0 a#
b0 `#
b0 _#
b0 ^#
b0 ]#
b0 \#
b0 [#
b0 Z#
bx Y#
bx X#
bx W#
bx V#
bx U#
bx T#
bx S#
b0 R#
bx Q#
b0 P#
b0 O#
bx N#
bx M#
b0 L#
b0 K#
b0 J#
b0 I#
b0 H#
b10101010 G#
b0 F#
b0 E#
b0 D#
b0 C#
b0 B#
b0 A#
b0 @#
b0 ?#
b0 >#
b0 =#
b0 <#
b0 ;#
b0 :#
b0 9#
b0 8#
b0 7#
b0 6#
b0 5#
b0 4#
b0 3#
b0 2#
b0 1#
b0 0#
b0 /#
b0 .#
b0 -#
b0 ,#
b0 +#
bx *#
bx )#
bx (#
bx '#
b0 &#
bx %#
bx $#
bx ##
bx "#
bx !#
bx ~"
bx }"
bx |"
bx {"
bx z"
b0 y"
bx x"
bx w"
bx v"
bx u"
bx t"
b0 s"
bx r"
bx q"
bx p"
bx o"
bx n"
bx m"
b0 l"
b0 k"
b0 _"
bx ^"
x]"
bx \"
x["
xZ"
bx Y"
bx X"
bx W"
bx V"
bx U"
bx T"
b0 S"
b0 R"
b0 Q"
b0 P"
b0 O"
b0 N"
b0 M"
b0 L"
b0 K"
b0 J"
b0 I"
b0 H"
b0 G"
b0 F"
b0 E"
b0 D"
b0 C"
b0 B"
b0 A"
b0 @"
b0 ?"
b0 >"
b0 ="
b0 <"
b0 ;"
b0 :"
b10101010 9"
b0 8"
b0 7"
b0 6"
b0 5"
b0 4"
x3"
x2"
x1"
x0"
bx /"
x."
bx -"
bx ,"
b0 +"
b0 *"
b0 )"
b0 ("
b0 '"
b0 &"
b0 %"
b0 $"
b0 #"
b0 ""
b0 !"
b0 ~
b0 }
b0 |
b0 {
b0 z
b0 y
b0 x
b0 w
b0 v
b0 u
b0 t
b0 s
b0 r
b0 q
b0 p
b0 o
b0 n
b0 m
b0 l
b0 k
b0 j
xi
bx h
bx g
bx f
bx e
zd
zc
0b
0a
b0 `
b0 _
b0 ^
b0 ]
b0 \
b0 [
b0 Z
b0 Y
b0 X
b0 W
b0 V
b0 U
b0 T
b0 S
b0 R
b0 Q
b0 P
b0 O
b0 N
b0 M
b0 L
b0 K
b0 J
b0 I
b0 H
b0 G
b10101010 F
b0 E
b0 D
b0 C
b0 B
b0 A
b0 @
b0 ?
b0 >
b0 =
b0 <
b0 ;
b0 :
b0 9
b0 8
b0 7
b0 6
b0 5
b0 4
b0 3
b0 2
b0 1
b0 0
b0 /
b0 .
b0 -
b0 ,
b0 +
b0 *
b0 )
b0 (
b0 '
b0 &
b0 %
b0 $
b0 #
b0 "
b0 !
$end
#1
b101100000000000010010011 V"
b101100000000000010010011 z"
b101100000000000010010011 Q#
b1 k"
b1 l"
b1 s"
b1 y"
b1 &#
b1 O#
b1 R#
b1 z#
1a
#2
0a
#3
b1 f
b1 t"
b1 $#
00"
b1011 W"
b1011 o"
b1011 }"
b1011 '#
b1011 {#
b0 Y"
b0 v"
b0 {"
b0 U"
b0 n"
b0 S#
b0 h
b0 "#
b0 W#
b1 -"
b1 !#
b1 U#
b10 k"
b10 l"
b10 s"
b10 y"
b10 &#
b10 O#
b10 R#
b10 z#
1a
#4
0a
#5
0."
1["
02"
0Z"
b11 ^"
b11 p"
b11 w"
b101 k"
b101 l"
b101 s"
b101 y"
b101 &#
b101 O#
b101 R#
b101 z#
1a
#6
0a
#7
b10 )#
b11 *#
0]"
b1011 \"
b1011 q"
b1011 %#
b1111 k"
b1111 l"
b1111 s"
b1111 y"
b1111 &#
b1111 O#
b1111 R#
b1111 z#
1a
#8
0a
#9
03"
01"
1i
b11 k"
b11 l"
b11 s"
b11 y"
b11 &#
b11 O#
b11 R#
b11 z#
1a
#10
0a
#11
b1011 e
b1011 N#
b1011 Y#
b0 ,"
b0 M#
b0 V#
b100 k"
b100 l"
b100 s"
b100 y"
b100 &#
b100 O#
b100 R#
b100 z#
1a
#12
0a
#13
b110 k"
b110 l"
b110 s"
b110 y"
b110 &#
b110 O#
b110 R#
b110 z#
1a
#14
0a
#15
b111 k"
b111 l"
b111 s"
b111 y"
b111 &#
b111 O#
b111 R#
b111 z#
1a
#16
0a
#17
b1011 ?
b1011 *"
b1011 [#
b1000 k"
b1000 l"
b1000 s"
b1000 y"
b1000 &#
b1000 O#
b1000 R#
b1000 z#
1a
#18
0a
#19
b1 _"
b1 P#
b1 |#
b0 k"
b0 l"
b0 s"
b0 y"
b0 &#
b0 O#
b0 R#
b0 z#
1a
#20
0a
#21
b101100000000000100010011 V"
b101100000000000100010011 z"
b101100000000000100010011 Q#
b1 k"
b1 l"
b1 s"
b1 y"
b1 &#
b1 O#
b1 R#
b1 z#
1a
#22
0a
#23
b10 -"
b10 !#
b10 U#
b10 k"
b10 l"
b10 s"
b10 y"
b10 &#
b10 O#
b10 R#
b10 z#
1a
#24
0a
#25
x3"
x1"
xi
b101 k"
b101 l"
b101 s"
b101 y"
b101 &#
b101 O#
b101 R#
b101 z#
1a
#26
0a
#27
b1111 k"
b1111 l"
b1111 s"
b1111 y"
b1111 &#
b1111 O#
b1111 R#
b1111 z#
1a
#28
0a
#29
03"
01"
1i
b11 k"
b11 l"
b11 s"
b11 y"
b11 &#
b11 O#
b11 R#
b11 z#
1a
#30
0a
#31
b100 k"
b100 l"
b100 s"
b100 y"
b100 &#
b100 O#
b100 R#
b100 z#
1a
#32
0a
#33
b110 k"
b110 l"
b110 s"
b110 y"
b110 &#
b110 O#
b110 R#
b110 z#
1a
#34
0a
#35
b111 k"
b111 l"
b111 s"
b111 y"
b111 &#
b111 O#
b111 R#
b111 z#
1a
#36
0a
#37
b1011 4
b1011 }
b1011 f#
b1000 k"
b1000 l"
b1000 s"
b1000 y"
b1000 &#
b1000 O#
b1000 R#
b1000 z#
1a
#38
0a
#39
b10 _"
b10 P#
b10 |#
b0 k"
b0 l"
b0 s"
b0 y"
b0 &#
b0 O#
b0 R#
b0 z#
1a
#40
0a
#41
b1000001000000110110011 V"
b1000001000000110110011 z"
b1000001000000110110011 Q#
b1 k"
b1 l"
b1 s"
b1 y"
b1 &#
b1 O#
b1 R#
b1 z#
1a
#42
0a
#43
b11 f
b11 t"
b11 $#
b11 -"
b11 !#
b11 U#
b1011 U"
b1011 n"
b1011 S#
b1 h
b1 "#
b1 W#
b1011 T"
b1011 m"
b1011 (#
b1011 T#
b10 g
b10 ##
b10 X#
b0 X"
b0 u"
b0 |"
b10 k"
b10 l"
b10 s"
b10 y"
b10 &#
b10 O#
b10 R#
b10 z#
1a
#44
0a
#45
0["
b10 ^"
b10 p"
b10 w"
x3"
x1"
xi
b101 k"
b101 l"
b101 s"
b101 y"
b101 &#
b101 O#
b101 R#
b101 z#
1a
#46
0a
#47
b101 )#
b10 *#
b10110 \"
b10110 q"
b10110 %#
b1111 k"
b1111 l"
b1111 s"
b1111 y"
b1111 &#
b1111 O#
b1111 R#
b1111 z#
1a
#48
0a
#49
03"
01"
1i
b11 k"
b11 l"
b11 s"
b11 y"
b11 &#
b11 O#
b11 R#
b11 z#
1a
#50
0a
#51
b10110 e
b10110 N#
b10110 Y#
b100 k"
b100 l"
b100 s"
b100 y"
b100 &#
b100 O#
b100 R#
b100 z#
1a
#52
0a
#53
b110 k"
b110 l"
b110 s"
b110 y"
b110 &#
b110 O#
b110 R#
b110 z#
1a
#54
0a
#55
b111 k"
b111 l"
b111 s"
b111 y"
b111 &#
b111 O#
b111 R#
b111 z#
1a
#56
0a
#57
b10110 )
b10110 r
b10110 q#
b1000 k"
b1000 l"
b1000 s"
b1000 y"
b1000 &#
b1000 O#
b1000 R#
b1000 z#
1a
#58
0a
#59
b11 _"
b11 P#
b11 |#
b0 k"
b0 l"
b0 s"
b0 y"
b0 &#
b0 O#
b0 R#
b0 z#
1a
#60
0a
#61
b1000001001001000110011 V"
b1000001001001000110011 z"
b1000001001001000110011 Q#
b1 k"
b1 l"
b1 s"
b1 y"
b1 &#
b1 O#
b1 R#
b1 z#
1a
#62
0a
#63
b1 Y"
b1 v"
b1 {"
b100 -"
b100 !#
b100 U#
b10 k"
b10 l"
b10 s"
b10 y"
b10 &#
b10 O#
b10 R#
b10 z#
1a
#64
0a
#65
b1010 ^"
b1010 p"
b1010 w"
x3"
x1"
xi
b101 k"
b101 l"
b101 s"
b101 y"
b101 &#
b101 O#
b101 R#
b101 z#
1a
#66
0a
#67
b0 )#
b0 *#
b101100000000000 \"
b101100000000000 q"
b101100000000000 %#
b1111 k"
b1111 l"
b1111 s"
b1111 y"
b1111 &#
b1111 O#
b1111 R#
b1111 z#
1a
#68
0a
#69
03"
01"
1i
b11 k"
b11 l"
b11 s"
b11 y"
b11 &#
b11 O#
b11 R#
b11 z#
1a
#70
0a
#71
b101100000000000 e
b101100000000000 N#
b101100000000000 Y#
b100 k"
b100 l"
b100 s"
b100 y"
b100 &#
b100 O#
b100 R#
b100 z#
1a
#72
0a
#73
b110 k"
b110 l"
b110 s"
b110 y"
b110 &#
b110 O#
b110 R#
b110 z#
1a
#74
0a
#75
b111 k"
b111 l"
b111 s"
b111 y"
b111 &#
b111 O#
b111 R#
b111 z#
1a
#76
0a
#77
b101100000000000 &
b101100000000000 o
b101100000000000 t#
b1000 k"
b1000 l"
b1000 s"
b1000 y"
b1000 &#
b1000 O#
b1000 R#
b1000 z#
1a
#78
0a
#79
b100 _"
b100 P#
b100 |#
b0 k"
b0 l"
b0 s"
b0 y"
b0 &#
b0 O#
b0 R#
b0 z#
1a
#80
0a
#81
b1000001001000001100111 V"
b1000001001000001100111 z"
b1000001001000001100111 Q#
b1 k"
b1 l"
b1 s"
b1 y"
b1 &#
b1 O#
b1 R#
b1 z#
1a
#82
0a
#83
b110 f
b110 t"
b110 $#
b0 W"
b0 o"
b0 }"
b0 '#
b0 {#
b10 k"
b10 l"
b10 s"
b10 y"
b10 &#
b10 O#
b10 R#
b10 z#
1a
#84
0a
#85
1["
1Z"
b1111 ^"
b1111 p"
b1111 w"
x3"
x1"
xi
b101 k"
b101 l"
b101 s"
b101 y"
b101 &#
b101 O#
b101 R#
b101 z#
1a
#86
0a
#87
1."
1]"
b0 \"
b0 q"
b0 %#
b1111 k"
b1111 l"
b1111 s"
b1111 y"
b1111 &#
b1111 O#
b1111 R#
b1111 z#
b0 r"
1a
#88
0a
#89
03"
01"
0i
b11 k"
b11 l"
b11 s"
b11 y"
b11 &#
b11 O#
b11 R#
b11 z#
1a
#90
0a
#91
b0 e
b0 N#
b0 Y#
b100 k"
b100 l"
b100 s"
b100 y"
b100 &#
b100 O#
b100 R#
b100 z#
1a
#92
0a
#93
b110 k"
b110 l"
b110 s"
b110 y"
b110 &#
b110 O#
b110 R#
b110 z#
1a
#94
0a
#95
b111 k"
b111 l"
b111 s"
b111 y"
b111 &#
b111 O#
b111 R#
b111 z#
1a
#96
0a
#97
b1000 k"
b1000 l"
b1000 s"
b1000 y"
b1000 &#
b1000 O#
b1000 R#
b1000 z#
1a
#98
0a
#99
b0 k"
b0 l"
b0 s"
b0 y"
b0 &#
b0 O#
b0 R#
b0 z#
1a
#100
0a
#101
b1 k"
b1 l"
b1 s"
b1 y"
b1 &#
b1 O#
b1 R#
b1 z#
1a
#102
0a
#103
b10 k"
b10 l"
b10 s"
b10 y"
b10 &#
b10 O#
b10 R#
b10 z#
1a
#104
0a
#105
x3"
x1"
xi
b101 k"
b101 l"
b101 s"
b101 y"
b101 &#
b101 O#
b101 R#
b101 z#
1a
#106
0a
#107
b1111 k"
b1111 l"
b1111 s"
b1111 y"
b1111 &#
b1111 O#
b1111 R#
b1111 z#
1a
#108
0a
#109
03"
01"
0i
b11 k"
b11 l"
b11 s"
b11 y"
b11 &#
b11 O#
b11 R#
b11 z#
1a
#110
0a
#111
b100 k"
b100 l"
b100 s"
b100 y"
b100 &#
b100 O#
b100 R#
b100 z#
1a
#112
0a
#113
b110 k"
b110 l"
b110 s"
b110 y"
b110 &#
b110 O#
b110 R#
b110 z#
1a
#114
0a
#115
b111 k"
b111 l"
b111 s"
b111 y"
b111 &#
b111 O#
b111 R#
b111 z#
1a
#116
0a
#117
b1000 k"
b1000 l"
b1000 s"
b1000 y"
b1000 &#
b1000 O#
b1000 R#
b1000 z#
1a
#118
0a
#119
b0 k"
b0 l"
b0 s"
b0 y"
b0 &#
b0 O#
b0 R#
b0 z#
1a
#120
0a
#121
b1 k"
b1 l"
b1 s"
b1 y"
b1 &#
b1 O#
b1 R#
b1 z#
1a
#122
0a
#123
b10 k"
b10 l"
b10 s"
b10 y"
b10 &#
b10 O#
b10 R#
b10 z#
1a
#124
0a
#125
x3"
x1"
xi
b101 k"
b101 l"
b101 s"
b101 y"
b101 &#
b101 O#
b101 R#
b101 z#
1a
#126
0a
#127
b1111 k"
b1111 l"
b1111 s"
b1111 y"
b1111 &#
b1111 O#
b1111 R#
b1111 z#
1a
#128
0a
#129
03"
01"
0i
b11 k"
b11 l"
b11 s"
b11 y"
b11 &#
b11 O#
b11 R#
b11 z#
1a
#130
0a
#131
b100 k"
b100 l"
b100 s"
b100 y"
b100 &#
b100 O#
b100 R#
b100 z#
1a
#132
0a
#133
b110 k"
b110 l"
b110 s"
b110 y"
b110 &#
b110 O#
b110 R#
b110 z#
1a
#134
0a
#135
b111 k"
b111 l"
b111 s"
b111 y"
b111 &#
b111 O#
b111 R#
b111 z#
1a
#136
0a
#137
b1000 k"
b1000 l"
b1000 s"
b1000 y"
b1000 &#
b1000 O#
b1000 R#
b1000 z#
1a
#138
0a
#139
b0 k"
b0 l"
b0 s"
b0 y"
b0 &#
b0 O#
b0 R#
b0 z#
1a
#140
0a
#141
b1 k"
b1 l"
b1 s"
b1 y"
b1 &#
b1 O#
b1 R#
b1 z#
1a
#142
0a
#143
b10 k"
b10 l"
b10 s"
b10 y"
b10 &#
b10 O#
b10 R#
b10 z#
1a
#144
0a
#145
x3"
x1"
xi
b101 k"
b101 l"
b101 s"
b101 y"
b101 &#
b101 O#
b101 R#
b101 z#
1a
#146
0a
#147
b1111 k"
b1111 l"
b1111 s"
b1111 y"
b1111 &#
b1111 O#
b1111 R#
b1111 z#
1a
#148
0a
#149
03"
01"
0i
b11 k"
b11 l"
b11 s"
b11 y"
b11 &#
b11 O#
b11 R#
b11 z#
1a
#150
0a
#151
b100 k"
b100 l"
b100 s"
b100 y"
b100 &#
b100 O#
b100 R#
b100 z#
1a
#152
0a
#153
b110 k"
b110 l"
b110 s"
b110 y"
b110 &#
b110 O#
b110 R#
b110 z#
1a
#154
0a
#155
b111 k"
b111 l"
b111 s"
b111 y"
b111 &#
b111 O#
b111 R#
b111 z#
1a
#156
0a
#157
b1000 k"
b1000 l"
b1000 s"
b1000 y"
b1000 &#
b1000 O#
b1000 R#
b1000 z#
1a
#158
0a
#159
b0 k"
b0 l"
b0 s"
b0 y"
b0 &#
b0 O#
b0 R#
b0 z#
1a
#160
0a
#161
b1 k"
b1 l"
b1 s"
b1 y"
b1 &#
b1 O#
b1 R#
b1 z#
1a
#162
0a
#163
b10 k"
b10 l"
b10 s"
b10 y"
b10 &#
b10 O#
b10 R#
b10 z#
1a
#164
0a
#165
x3"
x1"
xi
b101 k"
b101 l"
b101 s"
b101 y"
b101 &#
b101 O#
b101 R#
b101 z#
1a
#166
0a
#167
b1111 k"
b1111 l"
b1111 s"
b1111 y"
b1111 &#
b1111 O#
b1111 R#
b1111 z#
1a
#168
0a
#169
03"
01"
0i
b11 k"
b11 l"
b11 s"
b11 y"
b11 &#
b11 O#
b11 R#
b11 z#
1a
#170
0a
#171
b100 k"
b100 l"
b100 s"
b100 y"
b100 &#
b100 O#
b100 R#
b100 z#
1a
#172
0a
#173
b110 k"
b110 l"
b110 s"
b110 y"
b110 &#
b110 O#
b110 R#
b110 z#
1a
#174
0a
#175
b111 k"
b111 l"
b111 s"
b111 y"
b111 &#
b111 O#
b111 R#
b111 z#
1a
#176
0a
#177
b1000 k"
b1000 l"
b1000 s"
b1000 y"
b1000 &#
b1000 O#
b1000 R#
b1000 z#
1a
#178
0a
#179
b0 k"
b0 l"
b0 s"
b0 y"
b0 &#
b0 O#
b0 R#
b0 z#
1a
#180
0a
#181
b1 k"
b1 l"
b1 s"
b1 y"
b1 &#
b1 O#
b1 R#
b1 z#
1a
#182
0a
#183
b10 k"
b10 l"
b10 s"
b10 y"
b10 &#
b10 O#
b10 R#
b10 z#
1a
#184
0a
#185
x3"
x1"
xi
b101 k"
b101 l"
b101 s"
b101 y"
b101 &#
b101 O#
b101 R#
b101 z#
1a
#186
0a
