Run/testbench.vcd
$date
	Sun May 25 13:59:40 2025
$end
$version
	Icarus Verilog
$end
$timescale
	1s
$end
$scope module caminho_tb $end
$var wire 32 ! reg9 [31:0] $end
$var wire 32 " reg8 [31:0] $end
$var wire 32 # reg7 [31:0] $end
$var wire 32 $ reg6 [31:0] $end
$var wire 32 % reg5 [31:0] $end
$var wire 32 & reg4 [31:0] $end
$var wire 32 ' reg31 [31:0] $end
$var wire 32 ( reg30 [31:0] $end
$var wire 32 ) reg3 [31:0] $end
$var wire 32 * reg29 [31:0] $end
$var wire 32 + reg28 [31:0] $end
$var wire 32 , reg27 [31:0] $end
$var wire 32 - reg26 [31:0] $end
$var wire 32 . reg25 [31:0] $end
$var wire 32 / reg24 [31:0] $end
$var wire 32 0 reg23 [31:0] $end
$var wire 32 1 reg22 [31:0] $end
$var wire 32 2 reg21 [31:0] $end
$var wire 32 3 reg20 [31:0] $end
$var wire 32 4 reg2 [31:0] $end
$var wire 32 5 reg19 [31:0] $end
$var wire 32 6 reg18 [31:0] $end
$var wire 32 7 reg17 [31:0] $end
$var wire 32 8 reg16 [31:0] $end
$var wire 32 9 reg15 [31:0] $end
$var wire 32 : reg14 [31:0] $end
$var wire 32 ; reg13 [31:0] $end
$var wire 32 < reg12 [31:0] $end
$var wire 32 = reg11 [31:0] $end
$var wire 32 > reg10 [31:0] $end
$var wire 32 ? reg1 [31:0] $end
$var wire 32 @ reg0 [31:0] $end
$var wire 32 A mem9 [31:0] $end
$var wire 32 B mem8 [31:0] $end
$var wire 32 C mem7 [31:0] $end
$var wire 32 D mem6 [31:0] $end
$var wire 32 E mem5 [31:0] $end
$var wire 32 F mem4 [31:0] $end
$var wire 32 G mem31 [31:0] $end
$var wire 32 H mem30 [31:0] $end
$var wire 32 I mem3 [31:0] $end
$var wire 32 J mem29 [31:0] $end
$var wire 32 K mem28 [31:0] $end
$var wire 32 L mem27 [31:0] $end
$var wire 32 M mem26 [31:0] $end
$var wire 32 N mem25 [31:0] $end
$var wire 32 O mem24 [31:0] $end
$var wire 32 P mem23 [31:0] $end
$var wire 32 Q mem22 [31:0] $end
$var wire 32 R mem21 [31:0] $end
$var wire 32 S mem20 [31:0] $end
$var wire 32 T mem2 [31:0] $end
$var wire 32 U mem19 [31:0] $end
$var wire 32 V mem18 [31:0] $end
$var wire 32 W mem17 [31:0] $end
$var wire 32 X mem16 [31:0] $end
$var wire 32 Y mem15 [31:0] $end
$var wire 32 Z mem14 [31:0] $end
$var wire 32 [ mem13 [31:0] $end
$var wire 32 \ mem12 [31:0] $end
$var wire 32 ] mem11 [31:0] $end
$var wire 32 ^ mem10 [31:0] $end
$var wire 32 _ mem1 [31:0] $end
$var wire 32 ` mem0 [31:0] $end
$var reg 1 a clk_tb $end
$var reg 1 b rst_tb $end
$scope module main $end
$var wire 1 a clk $end
$var wire 1 b rst $end
$var wire 32 c writedataR [31:0] $end
$var wire 3 d tipo [2:0] $end
$var wire 5 e rs2 [4:0] $end
$var wire 5 f rs1 [4:0] $end
$var wire 1 g regiwrite $end
$var wire 32 h reg9 [31:0] $end
$var wire 32 i reg8 [31:0] $end
$var wire 32 j reg7 [31:0] $end
$var wire 32 k reg6 [31:0] $end
$var wire 32 l reg5 [31:0] $end
$var wire 32 m reg4 [31:0] $end
$var wire 32 n reg31 [31:0] $end
$var wire 32 o reg30 [31:0] $end
$var wire 32 p reg3 [31:0] $end
$var wire 32 q reg29 [31:0] $end
$var wire 32 r reg28 [31:0] $end
$var wire 32 s reg27 [31:0] $end
$var wire 32 t reg26 [31:0] $end
$var wire 32 u reg25 [31:0] $end
$var wire 32 v reg24 [31:0] $end
$var wire 32 w reg23 [31:0] $end
$var wire 32 x reg22 [31:0] $end
$var wire 32 y reg21 [31:0] $end
$var wire 32 z reg20 [31:0] $end
$var wire 32 { reg2 [31:0] $end
$var wire 32 | reg19 [31:0] $end
$var wire 32 } reg18 [31:0] $end
$var wire 32 ~ reg17 [31:0] $end
$var wire 32 !" reg16 [31:0] $end
$var wire 32 "" reg15 [31:0] $end
$var wire 32 #" reg14 [31:0] $end
$var wire 32 $" reg13 [31:0] $end
$var wire 32 %" reg12 [31:0] $end
$var wire 32 &" reg11 [31:0] $end
$var wire 32 '" reg10 [31:0] $end
$var wire 32 (" reg1 [31:0] $end
$var wire 32 )" reg0 [31:0] $end
$var wire 32 *" reddataM [31:0] $end
$var wire 32 +" readdata2R [31:0] $end
$var wire 32 ," readdata1R [31:0] $end
$var wire 5 -" rd [4:0] $end
$var wire 1 ." pcsrc $end
$var wire 7 /" opcode [6:0] $end
$var wire 1 0" negativo $end
$var wire 1 1" memwrite $end
$var wire 1 2" memtoreg $end
$var wire 1 3" memread $end
$var wire 32 4" mem9 [31:0] $end
$var wire 32 5" mem8 [31:0] $end
$var wire 32 6" mem7 [31:0] $end
$var wire 32 7" mem6 [31:0] $end
$var wire 32 8" mem5 [31:0] $end
$var wire 32 9" mem4 [31:0] $end
$var wire 32 :" mem31 [31:0] $end
$var wire 32 ;" mem30 [31:0] $end
$var wire 32 <" mem3 [31:0] $end
$var wire 32 =" mem29 [31:0] $end
$var wire 32 >" mem28 [31:0] $end
$var wire 32 ?" mem27 [31:0] $end
$var wire 32 @" mem26 [31:0] $end
$var wire 32 A" mem25 [31:0] $end
$var wire 32 B" mem24 [31:0] $end
$var wire 32 C" mem23 [31:0] $end
$var wire 32 D" mem22 [31:0] $end
$var wire 32 E" mem21 [31:0] $end
$var wire 32 F" mem20 [31:0] $end
$var wire 32 G" mem2 [31:0] $end
$var wire 32 H" mem19 [31:0] $end
$var wire 32 I" mem18 [31:0] $end
$var wire 32 J" mem17 [31:0] $end
$var wire 32 K" mem16 [31:0] $end
$var wire 32 L" mem15 [31:0] $end
$var wire 32 M" mem14 [31:0] $end
$var wire 32 N" mem13 [31:0] $end
$var wire 32 O" mem12 [31:0] $end
$var wire 32 P" mem11 [31:0] $end
$var wire 32 Q" mem10 [31:0] $end
$var wire 32 R" mem1 [31:0] $end
$var wire 32 S" mem0 [31:0] $end
$var wire 32 T" instrucao [31:0] $end
$var wire 12 U" immediate [11:0] $end
$var wire 7 V" funct7 [6:0] $end
$var wire 3 W" funct3 [2:0] $end
$var wire 1 X" branch $end
$var wire 1 Y" alusrc $end
$var wire 32 Z" aluresult2 [31:0] $end
$var wire 1 [" aluresult1 $end
$var wire 4 \" alucontrol [3:0] $end
$var wire 32 ]" PC [31:0] $end
$var parameter 4 ^" AUX1 $end
$var parameter 4 _" AUX2 $end
$var parameter 4 `" AUX3 $end
$var parameter 4 a" AUX4 $end
$var parameter 4 b" EX $end
$var parameter 4 c" FIM $end
$var parameter 4 d" ID $end
$var parameter 4 e" IF $end
$var parameter 4 f" MEM $end
$var parameter 4 g" SUMPC $end
$var parameter 4 h" WB $end
$var reg 4 i" estado [3:0] $end
$scope module Alu $end
$var wire 1 a clk $end
$var wire 4 j" estado [3:0] $end
$var wire 1 ." pcsrc $end
$var wire 32 k" readdata2R [31:0] $end
$var wire 32 l" readdata1R [31:0] $end
$var wire 1 0" negativo $end
$var wire 12 m" immediate [11:0] $end
$var wire 1 X" branch $end
$var wire 1 Y" alusrc $end
$var wire 4 n" alucontrol [3:0] $end
$var reg 1 [" aluresult1 $end
$var reg 32 o" aluresult2 [31:0] $end
$upscope $end
$scope module Control_signis $end
$var wire 1 a clk $end
$var wire 4 p" estado [3:0] $end
$var wire 3 q" tipo [2:0] $end
$var wire 7 r" funct7 [6:0] $end
$var wire 3 s" funct3 [2:0] $end
$var reg 4 t" alucontrol [3:0] $end
$var reg 2 u" aluop [1:0] $end
$var reg 1 Y" alusrc $end
$var reg 1 X" branch $end
$var reg 1 3" memread $end
$var reg 1 2" memtoreg $end
$var reg 1 1" memwrite $end
$var reg 1 g regiwrite $end
$upscope $end
$scope module Decoding $end
$var wire 1 a clk $end
$var wire 4 v" estado [3:0] $end
$var wire 32 w" instrucao [31:0] $end
$var reg 3 x" funct3 [2:0] $end
$var reg 7 y" funct7 [6:0] $end
$var reg 12 z" immediate [11:0] $end
$var reg 1 0" negativo $end
$var reg 7 {" opcode [6:0] $end
$var reg 5 |" rd [4:0] $end
$var reg 5 }" rs1 [4:0] $end
$var reg 5 ~" rs2 [4:0] $end
$var reg 3 !# tipo [2:0] $end
$upscope $end
$scope module Memory $end
$var wire 32 "# aluresult2 [31:0] $end
$var wire 1 a clk $end
$var wire 4 ## estado [3:0] $end
$var wire 12 $# immediate [11:0] $end
$var wire 1 3" memread $end
$var wire 1 1" memwrite $end
$var wire 32 %# readdata2R [31:0] $end
$var reg 32 &# mem0 [31:0] $end
$var reg 32 '# mem1 [31:0] $end
$var reg 32 (# mem10 [31:0] $end
$var reg 32 )# mem11 [31:0] $end
$var reg 32 *# mem12 [31:0] $end
$var reg 32 +# mem13 [31:0] $end
$var reg 32 ,# mem14 [31:0] $end
$var reg 32 -# mem15 [31:0] $end
$var reg 32 .# mem16 [31:0] $end
$var reg 32 /# mem17 [31:0] $end
$var reg 32 0# mem18 [31:0] $end
$var reg 32 1# mem19 [31:0] $end
$var reg 32 2# mem2 [31:0] $end
$var reg 32 3# mem20 [31:0] $end
$var reg 32 4# mem21 [31:0] $end
$var reg 32 5# mem22 [31:0] $end
$var reg 32 6# mem23 [31:0] $end
$var reg 32 7# mem24 [31:0] $end
$var reg 32 8# mem25 [31:0] $end
$var reg 32 9# mem26 [31:0] $end
$var reg 32 :# mem27 [31:0] $end
$var reg 32 ;# mem28 [31:0] $end
$var reg 32 <# mem29 [31:0] $end
$var reg 32 =# mem3 [31:0] $end
$var reg 32 ># mem30 [31:0] $end
$var reg 32 ?# mem31 [31:0] $end
$var reg 32 @# mem4 [31:0] $end
$var reg 32 A# mem5 [31:0] $end
$var reg 32 B# mem6 [31:0] $end
$var reg 32 C# mem7 [31:0] $end
$var reg 32 D# mem8 [31:0] $end
$var reg 32 E# mem9 [31:0] $end
$var reg 32 F# reddataM [31:0] $end
$var reg 32 G# writedataR [31:0] $end
$upscope $end
$scope module Read_instructions $end
$var wire 1 a clk $end
$var wire 4 H# estado [3:0] $end
$var wire 32 I# PC [31:0] $end
$var reg 32 J# instrucao [31:0] $end
$upscope $end
$scope module Registrars $end
$var wire 1 a clk $end
$var wire 4 K# estado [3:0] $end
$var wire 1 2" memtoreg $end
$var wire 5 L# rd [4:0] $end
$var wire 32 M# readdata1R [31:0] $end
$var wire 32 N# readdata2R [31:0] $end
$var wire 32 O# reddataM [31:0] $end
$var wire 1 g regiwrite $end
$var wire 5 P# rs1 [4:0] $end
$var wire 5 Q# rs2 [4:0] $end
$var wire 32 R# writedataR [31:0] $end
$var reg 32 S# reg0 [31:0] $end
$var reg 32 T# reg1 [31:0] $end
$var reg 32 U# reg10 [31:0] $end
$var reg 32 V# reg11 [31:0] $end
$var reg 32 W# reg12 [31:0] $end
$var reg 32 X# reg13 [31:0] $end
$var reg 32 Y# reg14 [31:0] $end
$var reg 32 Z# reg15 [31:0] $end
$var reg 32 [# reg16 [31:0] $end
$var reg 32 \# reg17 [31:0] $end
$var reg 32 ]# reg18 [31:0] $end
$var reg 32 ^# reg19 [31:0] $end
$var reg 32 _# reg2 [31:0] $end
$var reg 32 `# reg20 [31:0] $end
$var reg 32 a# reg21 [31:0] $end
$var reg 32 b# reg22 [31:0] $end
$var reg 32 c# reg23 [31:0] $end
$var reg 32 d# reg24 [31:0] $end
$var reg 32 e# reg25 [31:0] $end
$var reg 32 f# reg26 [31:0] $end
$var reg 32 g# reg27 [31:0] $end
$var reg 32 h# reg28 [31:0] $end
$var reg 32 i# reg29 [31:0] $end
$var reg 32 j# reg3 [31:0] $end
$var reg 32 k# reg30 [31:0] $end
$var reg 32 l# reg31 [31:0] $end
$var reg 32 m# reg4 [31:0] $end
$var reg 32 n# reg5 [31:0] $end
$var reg 32 o# reg6 [31:0] $end
$var reg 32 p# reg7 [31:0] $end
$var reg 32 q# reg8 [31:0] $end
$var reg 32 r# reg9 [31:0] $end
$upscope $end
$scope module SomaPC $end
$var wire 1 a clk $end
$var wire 4 s# estado [3:0] $end
$var wire 12 t# immediate [11:0] $end
$var wire 1 0" negativo $end
$var wire 1 ." pcsrc $end
$var reg 32 u# PC [31:0] $end
$upscope $end
$upscope $end
$upscope $end
$enddefinitions $end
$comment Show the parameter values. $end
$dumpall
b100 h"
b1000 g"
b11 f"
b0 e"
b1 d"
b1001 c"
b10 b"
b111 a"
b110 `"
b1111 _"
b101 ^"
$end
#0
$dumpvars
b0 u#
bx t#
b0 s#
b0 r#
b0 q#
b0 p#
b0 o#
b0 n#
b0 m#
b0 l#
b0 k#
b0 j#
b0 i#
b0 h#
b0 g#
b0 f#
b0 e#
b0 d#
b0 c#
b0 b#
b0 a#
b0 `#
b0 _#
b0 ^#
b0 ]#
b0 \#
b0 [#
b0 Z#
b0 Y#
b0 X#
b0 W#
b0 V#
b0 U#
b0 T#
b0 S#
bx R#
bx Q#
bx P#
bx O#
bx N#
bx M#
bx L#
b0 K#
bx J#
b0 I#
b0 H#
bx G#
bx F#
b0 E#
b0 D#
b0 C#
b0 B#
b0 A#
b0 @#
b0 ?#
b0 >#
b0 =#
b0 <#
b0 ;#
b0 :#
b0 9#
b0 8#
b0 7#
b0 6#
b0 5#
b0 4#
b0 3#
b0 2#
b0 1#
b0 0#
b0 /#
b0 .#
b0 -#
b0 ,#
b0 +#
b0 *#
b0 )#
b0 (#
b0 '#
b0 &#
bx %#
bx $#
b0 ##
bx "#
bx !#
bx ~"
bx }"
bx |"
bx {"
bx z"
bx y"
bx x"
bx w"
b0 v"
bx u"
bx t"
bx s"
bx r"
bx q"
b0 p"
bx o"
bx n"
bx m"
bx l"
bx k"
b0 j"
b0 i"
b0 ]"
bx \"
x["
bx Z"
xY"
xX"
bx W"
bx V"
bx U"
bx T"
b0 S"
b0 R"
b0 Q"
b0 P"
b0 O"
b0 N"
b0 M"
b0 L"
b0 K"
b0 J"
b0 I"
b0 H"
b0 G"
b0 F"
b0 E"
b0 D"
b0 C"
b0 B"
b0 A"
b0 @"
b0 ?"
b0 >"
b0 ="
b0 <"
b0 ;"
b0 :"
b0 9"
b0 8"
b0 7"
b0 6"
b0 5"
b0 4"
x3"
x2"
x1"
x0"
bx /"
x."
bx -"
bx ,"
bx +"
bx *"
b0 )"
b0 ("
b0 '"
b0 &"
b0 %"
b0 $"
b0 #"
b0 ""
b0 !"
b0 ~
b0 }
b0 |
b0 {
b0 z
b0 y
b0 x
b0 w
b0 v
b0 u
b0 t
b0 s
b0 r
b0 q
b0 p
b0 o
b0 n
b0 m
b0 l
b0 k
b0 j
b0 i
b0 h
xg
bx f
bx e
bx d
bx c
0b
0a
b0 `
b0 _
b0 ^
b0 ]
b0 \
b0 [
b0 Z
b0 Y
b0 X
b0 W
b0 V
b0 U
b0 T
b0 S
b0 R
b0 Q
b0 P
b0 O
b0 N
b0 M
b0 L
b0 K
b0 J
b0 I
b0 H
b0 G
b0 F
b0 E
b0 D
b0 C
b0 B
b0 A
b0 @
b0 ?
b0 >
b0 =
b0 <
b0 ;
b0 :
b0 9
b0 8
b0 7
b0 6
b0 5
b0 4
b0 3
b0 2
b0 1
b0 0
b0 /
b0 .
b0 -
b0 ,
b0 +
b0 *
b0 )
b0 (
b0 '
b0 &
b0 %
b0 $
b0 #
b0 "
b0 !
$end
#1
b11100000000000100010011 T"
b11100000000000100010011 w"
b11100000000000100010011 J#
b1 i"
b1 j"
b1 p"
b1 v"
b1 ##
b1 H#
b1 K#
b1 s#
1a
#2
0a
#3
b1 d
b1 q"
b1 !#
00"
b111 U"
b111 m"
b111 z"
b111 $#
b111 t#
b0 W"
b0 s"
b0 x"
b0 ,"
b0 l"
b0 M#
b0 f
b0 }"
b0 P#
b10 -"
b10 |"
b10 L#
b10 i"
b10 j"
b10 p"
b10 v"
b10 ##
b10 H#
b10 K#
b10 s#
1a
#4
0a
#5
0."
1Y"
02"
0X"
b11 \"
b11 n"
b11 t"
b101 i"
b101 j"
b101 p"
b101 v"
b101 ##
b101 H#
b101 K#
b101 s#
1a
#6
0a
#7
0["
b111 Z"
b111 o"
b111 "#
b1111 i"
b1111 j"
b1111 p"
b1111 v"
b1111 ##
b1111 H#
b1111 K#
b1111 s#
1a
#8
0a
#9
03"
01"
1g
b11 i"
b11 j"
b11 p"
b11 v"
b11 ##
b11 H#
b11 K#
b11 s#
1a
#10
0a
#11
b111 c
b111 G#
b111 R#
b100 i"
b100 j"
b100 p"
b100 v"
b100 ##
b100 H#
b100 K#
b100 s#
1a
#12
0a
#13
b110 i"
b110 j"
b110 p"
b110 v"
b110 ##
b110 H#
b110 K#
b110 s#
1a
#14
0a
#15
b111 i"
b111 j"
b111 p"
b111 v"
b111 ##
b111 H#
b111 K#
b111 s#
1a
#16
0a
#17
b111 4
b111 {
b111 _#
b1000 i"
b1000 j"
b1000 p"
b1000 v"
b1000 ##
b1000 H#
b1000 K#
b1000 s#
1a
#18
0a
#19
b1 ]"
b1 I#
b1 u#
b0 i"
b0 j"
b0 p"
b0 v"
b0 ##
b0 H#
b0 K#
b0 s#
1a
#20
0a
#21
b10100000000000110010011 T"
b10100000000000110010011 w"
b10100000000000110010011 J#
b1 i"
b1 j"
b1 p"
b1 v"
b1 ##
b1 H#
b1 K#
b1 s#
1a
#22
0a
#23
b101 U"
b101 m"
b101 z"
b101 $#
b101 t#
b11 -"
b11 |"
b11 L#
b10 i"
b10 j"
b10 p"
b10 v"
b10 ##
b10 H#
b10 K#
b10 s#
1a
#24
0a
#25
x3"
x1"
xg
b101 i"
b101 j"
b101 p"
b101 v"
b101 ##
b101 H#
b101 K#
b101 s#
1a
#26
0a
#27
b101 Z"
b101 o"
b101 "#
b1111 i"
b1111 j"
b1111 p"
b1111 v"
b1111 ##
b1111 H#
b1111 K#
b1111 s#
1a
#28
0a
#29
03"
01"
1g
b11 i"
b11 j"
b11 p"
b11 v"
b11 ##
b11 H#
b11 K#
b11 s#
1a
#30
0a
#31
b101 c
b101 G#
b101 R#
b100 i"
b100 j"
b100 p"
b100 v"
b100 ##
b100 H#
b100 K#
b100 s#
1a
#32
0a
#33
b110 i"
b110 j"
b110 p"
b110 v"
b110 ##
b110 H#
b110 K#
b110 s#
1a
#34
0a
#35
b111 i"
b111 j"
b111 p"
b111 v"
b111 ##
b111 H#
b111 K#
b111 s#
1a
#36
0a
#37
b101 )
b101 p
b101 j#
b1000 i"
b1000 j"
b1000 p"
b1000 v"
b1000 ##
b1000 H#
b1000 K#
b1000 s#
1a
#38
0a
#39
b10 ]"
b10 I#
b10 u#
b0 i"
b0 j"
b0 p"
b0 v"
b0 ##
b0 H#
b0 K#
b0 s#
1a
#40
0a
#41
b1001001100011 T"
b1001001100011 w"
b1001001100011 J#
b1 i"
b1 j"
b1 p"
b1 v"
b1 ##
b1 H#
b1 K#
b1 s#
1a
#42
0a
#43
b110 d
b110 q"
b110 !#
b1 W"
b1 s"
b1 x"
b0 +"
b0 k"
b0 %#
b0 N#
b0 e
b0 ~"
b0 Q#
b100 U"
b100 m"
b100 z"
b100 $#
b100 t#
b10 i"
b10 j"
b10 p"
b10 v"
b10 ##
b10 H#
b10 K#
b10 s#
1a
#44
0a
#45
1X"
b110 \"
b110 n"
b110 t"
x3"
x1"
xg
b101 i"
b101 j"
b101 p"
b101 v"
b101 ##
b101 H#
b101 K#
b101 s#
1a
#46
0a
#47
b0 Z"
b0 o"
b0 "#
b1111 i"
b1111 j"
b1111 p"
b1111 v"
b1111 ##
b1111 H#
b1111 K#
b1111 s#
1a
#48
0a
#49
b1111 \"
b1111 n"
b1111 t"
03"
01"
0g
b11 i"
b11 j"
b11 p"
b11 v"
b11 ##
b11 H#
b11 K#
b11 s#
1a
#50
0a
#51
b0 c
b0 G#
b0 R#
b100 i"
b100 j"
b100 p"
b100 v"
b100 ##
b100 H#
b100 K#
b100 s#
1a
#52
0a
#53
b110 i"
b110 j"
b110 p"
b110 v"
b110 ##
b110 H#
b110 K#
b110 s#
1a
#54
0a
#55
b111 i"
b111 j"
b111 p"
b111 v"
b111 ##
b111 H#
b111 K#
b111 s#
1a
#56
0a
#57
b1000 i"
b1000 j"
b1000 p"
b1000 v"
b1000 ##
b1000 H#
b1000 K#
b1000 s#
1a
#58
0a
#59
b11 ]"
b11 I#
b11 u#
b0 i"
b0 j"
b0 p"
b0 v"
b0 ##
b0 H#
b0 K#
b0 s#
1a
#60
0a
#61
b110000000000001010010011 T"
b110000000000001010010011 w"
b110000000000001010010011 J#
b1 i"
b1 j"
b1 p"
b1 v"
b1 ##
b1 H#
b1 K#
b1 s#
1a
#62
0a
#63
b1 d
b1 q"
b1 !#
b1100 U"
b1100 m"
b1100 z"
b1100 $#
b1100 t#
b0 W"
b0 s"
b0 x"
b101 -"
b101 |"
b101 L#
b10 i"
b10 j"
b10 p"
b10 v"
b10 ##
b10 H#
b10 K#
b10 s#
1a
#64
0a
#65
0X"
b11 \"
b11 n"
b11 t"
x3"
x1"
xg
b101 i"
b101 j"
b101 p"
b101 v"
b101 ##
b101 H#
b101 K#
b101 s#
1a
#66
0a
#67
b1100 Z"
b1100 o"
b1100 "#
b1111 i"
b1111 j"
b1111 p"
b1111 v"
b1111 ##
b1111 H#
b1111 K#
b1111 s#
1a
#68
0a
#69
03"
01"
1g
b11 i"
b11 j"
b11 p"
b11 v"
b11 ##
b11 H#
b11 K#
b11 s#
1a
#70
0a
#71
b1100 c
b1100 G#
b1100 R#
b100 i"
b100 j"
b100 p"
b100 v"
b100 ##
b100 H#
b100 K#
b100 s#
1a
#72
0a
#73
b110 i"
b110 j"
b110 p"
b110 v"
b110 ##
b110 H#
b110 K#
b110 s#
1a
#74
0a
#75
b111 i"
b111 j"
b111 p"
b111 v"
b111 ##
b111 H#
b111 K#
b111 s#
1a
#76
0a
#77
b1100 %
b1100 l
b1100 n#
b1000 i"
b1000 j"
b1000 p"
b1000 v"
b1000 ##
b1000 H#
b1000 K#
b1000 s#
1a
#78
0a
#79
b100 ]"
b100 I#
b100 u#
b0 i"
b0 j"
b0 p"
b0 v"
b0 ##
b0 H#
b0 K#
b0 s#
1a
#80
0a
#81
b0 T"
b0 w"
b0 J#
b1 i"
b1 j"
b1 p"
b1 v"
b1 ##
b1 H#
b1 K#
b1 s#
1a
#82
0a
#83
b0 d
b0 q"
b0 !#
b0 U"
b0 m"
b0 z"
b0 $#
b0 t#
b0 -"
b0 |"
b0 L#
b1001 i"
b1001 j"
b1001 p"
b1001 v"
b1001 ##
b1001 H#
b1001 K#
b1001 s#
1a
#84
0a
#85
b0 i"
b0 j"
b0 p"
b0 v"
b0 ##
b0 H#
b0 K#
b0 s#
1a
#86
0a
#87
b1 i"
b1 j"
b1 p"
b1 v"
b1 ##
b1 H#
b1 K#
b1 s#
1a
#88
0a
#89
b1001 i"
b1001 j"
b1001 p"
b1001 v"
b1001 ##
b1001 H#
b1001 K#
b1001 s#
1a
#90
0a
#91
b0 i"
b0 j"
b0 p"
b0 v"
b0 ##
b0 H#
b0 K#
b0 s#
1a
#92
0a
#93
b1 i"
b1 j"
b1 p"
b1 v"
b1 ##
b1 H#
b1 K#
b1 s#
1a
#94
0a
#95
b1001 i"
b1001 j"
b1001 p"
b1001 v"
b1001 ##
b1001 H#
b1001 K#
b1001 s#
1a
#96
0a
#97
b0 i"
b0 j"
b0 p"
b0 v"
b0 ##
b0 H#
b0 K#
b0 s#
1a
#98
0a
#99
b1 i"
b1 j"
b1 p"
b1 v"
b1 ##
b1 H#
b1 K#
b1 s#
1a
#100
0a
#101
b1001 i"
b1001 j"
b1001 p"
b1001 v"
b1001 ##
b1001 H#
b1001 K#
b1001 s#
1a
#102
0a
#103
b0 i"
b0 j"
b0 p"
b0 v"
b0 ##
b0 H#
b0 K#
b0 s#
1a
#104
0a
#105
b1 i"
b1 j"
b1 p"
b1 v"
b1 ##
b1 H#
b1 K#
b1 s#
1a
#106
0a
#107
b1001 i"
b1001 j"
b1001 p"
b1001 v"
b1001 ##
b1001 H#
b1001 K#
b1001 s#
1a
#108
0a
#109
b0 i"
b0 j"
b0 p"
b0 v"
b0 ##
b0 H#
b0 K#
b0 s#
1a
#110
0a
#111
b1 i"
b1 j"
b1 p"
b1 v"
b1 ##
b1 H#
b1 K#
b1 s#
1a
#112
0a
#113
b1001 i"
b1001 j"
b1001 p"
b1001 v"
b1001 ##
b1001 H#
b1001 K#
b1001 s#
1a
#114
0a
#115
b0 i"
b0 j"
b0 p"
b0 v"
b0 ##
b0 H#
b0 K#
b0 s#
1a
#116
0a
#117
b1 i"
b1 j"
b1 p"
b1 v"
b1 ##
b1 H#
b1 K#
b1 s#
1a
#118
0a
#119
b1001 i"
b1001 j"
b1001 p"
b1001 v"
b1001 ##
b1001 H#
b1001 K#
b1001 s#
1a
#120
0a
#121
b0 i"
b0 j"
b0 p"
b0 v"
b0 ##
b0 H#
b0 K#
b0 s#
1a
#122
0a
#123
b1 i"
b1 j"
b1 p"
b1 v"
b1 ##
b1 H#
b1 K#
b1 s#
1a
#124
0a
#125
b1001 i"
b1001 j"
b1001 p"
b1001 v"
b1001 ##
b1001 H#
b1001 K#
b1001 s#
1a
#126
0a
#127
b0 i"
b0 j"
b0 p"
b0 v"
b0 ##
b0 H#
b0 K#
b0 s#
1a
#128
0a
#129
b1 i"
b1 j"
b1 p"
b1 v"
b1 ##
b1 H#
b1 K#
b1 s#
1a
#130
0a
#131
b1001 i"
b1001 j"
b1001 p"
b1001 v"
b1001 ##
b1001 H#
b1001 K#
b1001 s#
1a
#132
0a
#133
b0 i"
b0 j"
b0 p"
b0 v"
b0 ##
b0 H#
b0 K#
b0 s#
1a
#134
0a
#135
b1 i"
b1 j"
b1 p"
b1 v"
b1 ##
b1 H#
b1 K#
b1 s#
1a
#136
0a
#137
b1001 i"
b1001 j"
b1001 p"
b1001 v"
b1001 ##
b1001 H#
b1001 K#
b1001 s#
1a
#138
0a
#139
b0 i"
b0 j"
b0 p"
b0 v"
b0 ##
b0 H#
b0 K#
b0 s#
1a
#140
0a
#141
b1 i"
b1 j"
b1 p"
b1 v"
b1 ##
b1 H#
b1 K#
b1 s#
1a
#142
0a
#143
b1001 i"
b1001 j"
b1001 p"
b1001 v"
b1001 ##
b1001 H#
b1001 K#
b1001 s#
1a
#144
0a
#145
b0 i"
b0 j"
b0 p"
b0 v"
b0 ##
b0 H#
b0 K#
b0 s#
1a
#146
0a
#147
b1 i"
b1 j"
b1 p"
b1 v"
b1 ##
b1 H#
b1 K#
b1 s#
1a
#148
0a
#149
b1001 i"
b1001 j"
b1001 p"
b1001 v"
b1001 ##
b1001 H#
b1001 K#
b1001 s#
1a
#150
0a
#151
b0 i"
b0 j"
b0 p"
b0 v"
b0 ##
b0 H#
b0 K#
b0 s#
1a
#152
0a
#153
b1 i"
b1 j"
b1 p"
b1 v"
b1 ##
b1 H#
b1 K#
b1 s#
1a
#154
0a
#155
b1001 i"
b1001 j"
b1001 p"
b1001 v"
b1001 ##
b1001 H#
b1001 K#
b1001 s#
1a
#156
0a
#157
b0 i"
b0 j"
b0 p"
b0 v"
b0 ##
b0 H#
b0 K#
b0 s#
1a
#158
0a
#159
b1 i"
b1 j"
b1 p"
b1 v"
b1 ##
b1 H#
b1 K#
b1 s#
1a
#160
0a
#161
b1001 i"
b1001 j"
b1001 p"
b1001 v"
b1001 ##
b1001 H#
b1001 K#
b1001 s#
1a
#162
0a
#163
b0 i"
b0 j"
b0 p"
b0 v"
b0 ##
b0 H#
b0 K#
b0 s#
1a
#164
0a
#165
b1 i"
b1 j"
b1 p"
b1 v"
b1 ##
b1 H#
b1 K#
b1 s#
1a
#166
0a
#167
b1001 i"
b1001 j"
b1001 p"
b1001 v"
b1001 ##
b1001 H#
b1001 K#
b1001 s#
1a
#168
0a
#169
b0 i"
b0 j"
b0 p"
b0 v"
b0 ##
b0 H#
b0 K#
b0 s#
1a
#170
0a
#171
b1 i"
b1 j"
b1 p"
b1 v"
b1 ##
b1 H#
b1 K#
b1 s#
1a
#172
0a
#173
b1001 i"
b1001 j"
b1001 p"
b1001 v"
b1001 ##
b1001 H#
b1001 K#
b1001 s#
1a
#174
0a
#175
b0 i"
b0 j"
b0 p"
b0 v"
b0 ##
b0 H#
b0 K#
b0 s#
1a
#176
0a
#177
b1 i"
b1 j"
b1 p"
b1 v"
b1 ##
b1 H#
b1 K#
b1 s#
1a
#178
0a
#179
b1001 i"
b1001 j"
b1001 p"
b1001 v"
b1001 ##
b1001 H#
b1001 K#
b1001 s#
1a
#180
0a
#181
b0 i"
b0 j"
b0 p"
b0 v"
b0 ##
b0 H#
b0 K#
b0 s#
1a
#182
0a
#183
b1 i"
b1 j"
b1 p"
b1 v"
b1 ##
b1 H#
b1 K#
b1 s#
1a
#184
0a
#185
b1001 i"
b1001 j"
b1001 p"
b1001 v"
b1001 ##
b1001 H#
b1001 K#
b1001 s#
1a
#186
0a
#187
b0 i"
b0 j"
b0 p"
b0 v"
b0 ##
b0 H#
b0 K#
b0 s#
1a
#188
0a
#189
b1 i"
b1 j"
b1 p"
b1 v"
b1 ##
b1 H#
b1 K#
b1 s#
1a
#190
0a
#191
b1001 i"
b1001 j"
b1001 p"
b1001 v"
b1001 ##
b1001 H#
b1001 K#
b1001 s#
1a
#192
0a
#193
b0 i"
b0 j"
b0 p"
b0 v"
b0 ##
b0 H#
b0 K#
b0 s#
1a
#194
0a
#195
b1 i"
b1 j"
b1 p"
b1 v"
b1 ##
b1 H#
b1 K#
b1 s#
1a
#196
0a
#197
b1001 i"
b1001 j"
b1001 p"
b1001 v"
b1001 ##
b1001 H#
b1001 K#
b1001 s#
1a
#198
0a
#199
b0 i"
b0 j"
b0 p"
b0 v"
b0 ##
b0 H#
b0 K#
b0 s#
1a
#200
0a
